{
  "RowNumber": 0,
  "ModelID": 180291,
  "ModelExtID": "85d7d552-1720-42f0-a06c-8a1d7c69214e",
  "Active": true,
  "Built": false,
  "TagName": "tag0001",
  "TagDesc": "tag0001 model 1 input change test",
  "ModelName": "Frozen Data Check",
  "ModelTypeID": 4,
  "ModelTypeAbbrev": "Frozen Data",
  "Score": null,
  "EngUnits": "n/a",
  "AssetID": 790000516,
  "AssetGUID": "AC90D515-2014-444B-82BB-F53897F8A788",
  "AssetDesc": "Model 0001",
  "AssetAbbrev": "Model 0001",
  "UnitID": 790000516,
  "UnitAbbrev": "Model 0001",
  "PrioritizedOpMode": "Steady State",
  "MAELower": null,
  "MAEUpper": null,
  "ActionDiagnose": false,
  "ActionWatch": false,
  "ActionWatchOverride": false,
  "ActionModelMaintenance": false,
  "HasOpenIssue": true,
  "OpenIssues": 1,
  "AlertStatusType": "",
  "AlertTypes": null,
  "AlertPriority": "",
  "AlertPrioritySeverity": null,
  "PercentOutOfBounds": 0.0,
  "Actual": 16.0,
  "Expected": 16.0,
  "AddedToAlerts": null,
  "Alert": false,
  "Alerts": null,
  "UpperLimit": 16.0,
  "UpperSeverity": null,
  "LowerLimit": 16.0,
  "LowerSeverity": null,
  "HiHiAlert": false,
  "HiHiAlertSinceTime": null,
  "LowLowAlert": false,
  "LowLowAlertSinceTime": null,
  "AreaFastResponseAlert": false,
  "AreaFastResponseAlertSinceTime": null,
  "AreaSlowResponseAlert": false,
  "AreaSlowResponseAlertSinceTime": null,
  "FrequencyAlert": false,
  "FrequencyAlertSinceTime": null,
  "OscillationAlert": false,
  "OscillationAlertSinceTime": null,
  "FrozenDataAlert": false,
  "FrozenDataAlertSinceTime": null,
  "WatchOverrideAlert": false,
  "WatchOverrideAlertSinceTime": null,
  "IgnoreOverrideAlert": false,
  "IgnoreOverrideAlertSinceTime": null,
  "ModelActionItemPriorityTypeID": 0,
  "NotePriority": "",
  "LastNote": "Test the lastissueaction in action archive",
  "LastNoteDate": "2021-06-29T13:42:13.26-05:00",
  "TagGroup": "Live MD Test Group/Live MD Test Station/Live MD Test Unit/Tux Group 1/Model 0001",
  "OutOfBounds": false,
  "Ignore": false,
  "StatusInfo": "",
  "CurrentBuildStatus": "Save",
  "BuildStatus": "Save",
  "ReferenceModelId": "",
  "TagNDId": "",
  "IsStandard": false,
  "AssetCriticality": 3,
  "ModelCriticality": 1,
  "Criticality": 3,
  "Categories": null,
  "PercentExpected": 0.0,
  "ModelConfigURL": "",
  "DiagnosticDrilldownURL": "",
  "AssetClassTypeID": 4006,
  "AssetClassType": "Gas/Oil Fuel Thermal Unit",
  "VariableTypeID": 0,
  "VariableType": "",
  "AlertTypesActive": ""
}
