[
  {
    "ListConfigID": 688,
    "Owner": "testautomationuser1@atonixtest.com",
    "ListType": "alerts",
    "Name": "ALERTS_floatingFilter 2021-10-12T12:38:58.593Z",
    "Content": "{\"columns\":[{\"colId\":\"AssetID\",\"width\":200,\"hide\":true,\"pinned\":null,\"sort\":null,\"sortIndex\":null,\"aggFunc\":null,\"rowGroup\":false,\"rowGroupIndex\":null,\"pivot\":false,\"pivotIndex\":null,\"flex\":null},{\"colId\":\"ActionDiagnose\",\"width\":65,\"hide\":false,\"pinned\":null,\"sort\":null,\"sortIndex\":null,\"aggFunc\":null,\"rowGroup\":false,\"rowGroupIndex\":null,\"pivot\":false,\"pivotIndex\":null,\"flex\":null},{\"colId\":\"ActionWatch\",\"width\":65,\"hide\":false,\"pinned\":null,\"sort\":null,\"sortIndex\":null,\"aggFunc\":null,\"rowGroup\":false,\"rowGroupIndex\":null,\"pivot\":false,\"pivotIndex\":null,\"flex\":null},{\"colId\":\"ActionMaintenance\",\"width\":65,\"hide\":false,\"pinned\":null,\"sort\":null,\"sortIndex\":null,\"aggFunc\":null,\"rowGroup\":false,\"rowGroupIndex\":null,\"pivot\":false,\"pivotIndex\":null,\"flex\":null},{\"colId\":\"Alert\",\"width\":65,\"hide\":false,\"pinned\":null,\"sort\":null,\"sortIndex\":null,\"aggFunc\":null,\"rowGroup\":false,\"rowGroupIndex\":null,\"pivot\":false,\"pivotIndex\":null,\"flex\":null},{\"colId\":\"ExternalID\",\"width\":200,\"hide\":true,\"pinned\":null,\"sort\":null,\"sortIndex\":null,\"aggFunc\":null,\"rowGroup\":false,\"rowGroupIndex\":null,\"pivot\":false,\"pivotIndex\":null,\"flex\":null},{\"colId\":\"Issues\",\"width\":90,\"hide\":false,\"pinned\":null,\"sort\":null,\"sortIndex\":null,\"aggFunc\":null,\"rowGroup\":false,\"rowGroupIndex\":null,\"pivot\":false,\"pivotIndex\":null,\"flex\":null},{\"colId\":\"NotePriority\",\"width\":200,\"hide\":false,\"pinned\":null,\"sort\":null,\"sortIndex\":null,\"aggFunc\":null,\"rowGroup\":false,\"rowGroupIndex\":null,\"pivot\":false,\"pivotIndex\":null,\"flex\":null},{\"colId\":\"UnitAbbrev\",\"width\":200,\"hide\":false,\"pinned\":null,\"sort\":null,\"sortIndex\":null,\"aggFunc\":null,\"rowGroup\":false,\"rowGroupIndex\":null,\"pivot\":false,\"pivotIndex\":null,\"flex\":null},{\"colId\":\"ModelName\",\"width\":200,\"hide\":false,\"pinned\":null,\"sort\":null,\"sortIndex\":null,\"aggFunc\":null,\"rowGroup\":false,\"rowGroupIndex\":null,\"pivot\":false,\"pivotIndex\":null,\"flex\":null},{\"colId\":\"PercentOutOfBounds\",\"width\":110,\"hide\":false,\"pinned\":null,\"sort\":null,\"sortIndex\":null,\"aggFunc\":null,\"rowGroup\":false,\"rowGroupIndex\":null,\"pivot\":false,\"pivotIndex\":null,\"flex\":null},{\"colId\":\"PercentExpected\",\"width\":90,\"hide\":false,\"pinned\":null,\"sort\":null,\"sortIndex\":null,\"aggFunc\":null,\"rowGroup\":false,\"rowGroupIndex\":null,\"pivot\":false,\"pivotIndex\":null,\"flex\":null},{\"colId\":\"Actual\",\"width\":90,\"hide\":false,\"pinned\":null,\"sort\":null,\"sortIndex\":null,\"aggFunc\":null,\"rowGroup\":false,\"rowGroupIndex\":null,\"pivot\":false,\"pivotIndex\":null,\"flex\":null},{\"colId\":\"LowerLimit\",\"width\":90,\"hide\":false,\"pinned\":null,\"sort\":null,\"sortIndex\":null,\"aggFunc\":null,\"rowGroup\":false,\"rowGroupIndex\":null,\"pivot\":false,\"pivotIndex\":null,\"flex\":null},{\"colId\":\"Expected\",\"width\":110,\"hide\":false,\"pinned\":null,\"sort\":null,\"sortIndex\":null,\"aggFunc\":null,\"rowGroup\":false,\"rowGroupIndex\":null,\"pivot\":false,\"pivotIndex\":null,\"flex\":null},{\"colId\":\"UpperLimit\",\"width\":90,\"hide\":false,\"pinned\":null,\"sort\":null,\"sortIndex\":null,\"aggFunc\":null,\"rowGroup\":false,\"rowGroupIndex\":null,\"pivot\":false,\"pivotIndex\":null,\"flex\":null},{\"colId\":\"EngUnits\",\"width\":200,\"hide\":false,\"pinned\":null,\"sort\":null,\"sortIndex\":null,\"aggFunc\":null,\"rowGroup\":false,\"rowGroupIndex\":null,\"pivot\":false,\"pivotIndex\":null,\"flex\":null},{\"colId\":\"LastNote\",\"width\":200,\"hide\":false,\"pinned\":null,\"sort\":null,\"sortIndex\":null,\"aggFunc\":null,\"rowGroup\":false,\"rowGroupIndex\":null,\"pivot\":false,\"pivotIndex\":null,\"flex\":null},{\"colId\":\"LastNoteDate\",\"width\":200,\"hide\":false,\"pinned\":null,\"sort\":null,\"sortIndex\":null,\"aggFunc\":null,\"rowGroup\":false,\"rowGroupIndex\":null,\"pivot\":false,\"pivotIndex\":null,\"flex\":null},{\"colId\":\"PrioritizedOpMode\",\"width\":200,\"hide\":false,\"pinned\":null,\"sort\":null,\"sortIndex\":null,\"aggFunc\":null,\"rowGroup\":false,\"rowGroupIndex\":null,\"pivot\":false,\"pivotIndex\":null,\"flex\":null},{\"colId\":\"Score\",\"width\":90,\"hide\":false,\"pinned\":null,\"sort\":null,\"sortIndex\":null,\"aggFunc\":null,\"rowGroup\":false,\"rowGroupIndex\":null,\"pivot\":false,\"pivotIndex\":null,\"flex\":null},{\"colId\":\"AlertTypesActive\",\"width\":200,\"hide\":false,\"pinned\":null,\"sort\":null,\"sortIndex\":null,\"aggFunc\":null,\"rowGroup\":false,\"rowGroupIndex\":null,\"pivot\":false,\"pivotIndex\":null,\"flex\":null},{\"colId\":\"ModelTypeAbbrev\",\"width\":200,\"hide\":false,\"pinned\":null,\"sort\":null,\"sortIndex\":null,\"aggFunc\":null,\"rowGroup\":false,\"rowGroupIndex\":null,\"pivot\":false,\"pivotIndex\":null,\"flex\":null},{\"colId\":\"AddedToAlerts\",\"width\":200,\"hide\":false,\"pinned\":null,\"sort\":null,\"sortIndex\":null,\"aggFunc\":null,\"rowGroup\":false,\"rowGroupIndex\":null,\"pivot\":false,\"pivotIndex\":null,\"flex\":null},{\"colId\":\"TagGroup\",\"width\":200,\"hide\":false,\"pinned\":null,\"sort\":null,\"sortIndex\":null,\"aggFunc\":null,\"rowGroup\":false,\"rowGroupIndex\":null,\"pivot\":false,\"pivotIndex\":null,\"flex\":null},{\"colId\":\"TagName\",\"width\":200,\"hide\":false,\"pinned\":null,\"sort\":null,\"sortIndex\":null,\"aggFunc\":null,\"rowGroup\":false,\"rowGroupIndex\":null,\"pivot\":false,\"pivotIndex\":null,\"flex\":null},{\"colId\":\"AssetCriticality\",\"width\":150,\"hide\":false,\"pinned\":null,\"sort\":null,\"sortIndex\":null,\"aggFunc\":null,\"rowGroup\":false,\"rowGroupIndex\":null,\"pivot\":false,\"pivotIndex\":null,\"flex\":null},{\"colId\":\"ModelCriticality\",\"width\":150,\"hide\":false,\"pinned\":null,\"sort\":null,\"sortIndex\":null,\"aggFunc\":null,\"rowGroup\":false,\"rowGroupIndex\":null,\"pivot\":false,\"pivotIndex\":null,\"flex\":null},{\"colId\":\"Criticality\",\"width\":150,\"hide\":false,\"pinned\":null,\"sort\":null,\"sortIndex\":null,\"aggFunc\":null,\"rowGroup\":false,\"rowGroupIndex\":null,\"pivot\":false,\"pivotIndex\":null,\"flex\":null},{\"colId\":\"AlertPriority\",\"width\":130,\"hide\":false,\"pinned\":null,\"sort\":null,\"sortIndex\":null,\"aggFunc\":null,\"rowGroup\":false,\"rowGroupIndex\":null,\"pivot\":false,\"pivotIndex\":null,\"flex\":null},{\"colId\":\"OutOfBounds\",\"width\":200,\"hide\":false,\"pinned\":null,\"sort\":null,\"sortIndex\":null,\"aggFunc\":null,\"rowGroup\":false,\"rowGroupIndex\":null,\"pivot\":false,\"pivotIndex\":null,\"flex\":null},{\"colId\":\"Ignore\",\"width\":200,\"hide\":false,\"pinned\":null,\"sort\":null,\"sortIndex\":null,\"aggFunc\":null,\"rowGroup\":false,\"rowGroupIndex\":null,\"pivot\":false,\"pivotIndex\":null,\"flex\":null},{\"colId\":\"StatusInfo\",\"width\":200,\"hide\":false,\"pinned\":null,\"sort\":null,\"sortIndex\":null,\"aggFunc\":null,\"rowGroup\":false,\"rowGroupIndex\":null,\"pivot\":false,\"pivotIndex\":null,\"flex\":null},{\"colId\":\"AssetGUID\",\"width\":200,\"hide\":false,\"pinned\":null,\"sort\":null,\"sortIndex\":null,\"aggFunc\":null,\"rowGroup\":false,\"rowGroupIndex\":null,\"pivot\":false,\"pivotIndex\":null,\"flex\":null},{\"colId\":\"AssetClassTypeID\",\"width\":200,\"hide\":false,\"pinned\":null,\"sort\":null,\"sortIndex\":null,\"aggFunc\":null,\"rowGroup\":false,\"rowGroupIndex\":null,\"pivot\":false,\"pivotIndex\":null,\"flex\":null},{\"colId\":\"VariableTypeID\",\"width\":200,\"hide\":false,\"pinned\":null,\"sort\":null,\"sortIndex\":null,\"aggFunc\":null,\"rowGroup\":false,\"rowGroupIndex\":null,\"pivot\":false,\"pivotIndex\":null,\"flex\":null}],\"sort\":[],\"filter\":{\"AssetID\":{\"filterType\":\"text\",\"type\":\"contains\",\"filter\":\"MjdjZWJiNzEtZDY3MC00OTBmLTk2NmYtZDJmZWI1MzBiM2Y1fjVmNWY1Yjc0LWE0YTUtNDViNC05N2M5LTM1M2FmZmFkN2Y5OX43OTAwMDA1MDk=\"},\"Alert\":{\"values\":[\"true\"],\"filterType\":\"set\"},\"ActionWatch\":{\"values\":[\"false\"],\"filterType\":\"set\"},\"Ignore\":{\"values\":[\"false\"],\"filterType\":\"set\"},\"UnitAbbrev\":{\"filterType\":\"text\",\"type\":\"contains\",\"filter\":\"Live MD Test Unit\"}},\"groups\":[]}"
  }
]
