{
  "npmScope": "atx",
  "affected": {
    "defaultBase": "develop"
  },
  "implicitDependencies": {
    "angular.json": "*",
    "package.json": "*",
    "tsconfig.base.json": "*",
    "nx.json": "*"
  },
  "tasksRunnerOptions": {
    "default": {
      "runner": "@nrwl/nx-cloud",
      "options": {
        "cacheableOperations": ["build", "lint", "test", "e2e"],
        "parallel": 1
      }
    }
  },
  "cli": {
    "packageManager": "npm"
  },
  "defaultProject": "atx-md",
  "generators": {
    "@nrwl/workspace": {
      "library": {
        "linter": "eslint"
      }
    },
    "@nrwl/cypress": {
      "cypress-project": {
        "linter": "eslint"
      }
    },
    "@nrwl/node": {
      "application": {
        "linter": "eslint"
      },
      "library": {
        "linter": "eslint"
      }
    },
    "@nrwl/nest": {
      "application": {
        "linter": "eslint"
      },
      "library": {
        "linter": "eslint"
      }
    },
    "@nrwl/express": {
      "application": {
        "linter": "eslint"
      },
      "library": {
        "linter": "eslint"
      }
    },
    "@nrwl/angular:application": {
      "style": "scss",
      "linter": "eslint",
      "unitTestRunner": "jest",
      "e2eTestRunner": "cypress"
    },
    "@nrwl/angular:library": {
      "linter": "eslint",
      "unitTestRunner": "jest"
    },
    "@nrwl/angular:component": {
      "style": "scss"
    }
  },
  "$schema": "./node_modules/nx/schemas/nx-schema.json",
  "targetDefaults": {
    "build": {
      "dependsOn": ["^build"]
    }
  }
}
