{
  "Success": true,
  "StatusCode": 200,
  "Type": "IEnumerable`1",
  "Count": 1,
  "Results": [
    [
      {
        "ModelID": 254033,
        "ModelExtID": "76E48DCA-04C7-48CF-80E9-77F69AC1C544",
        "Active": true,
        "Built": true,
        "ModelName": "Model Dependent tag10220",
        "ModelTypeID": 1,
        "ModelTypeAbbrev": "APR",
        "TagName": "tag10220",
        "TagDesc": "tag10220",
        "TagGroup": "Live MD Test Group/Live MD Test Station/Live MD Test Unit/tags 10001 - 11000/tags 10201 - 10300",
        "Score": 99,
        "EngUnits": "n/a",
        "PrioritizedOpMode": "Steady State",
        "AssetDesc": "tags 10201 - 10300",
        "AssetAbbrev": "tags 10201 - 10300",
        "AssetID": 4519117,
        "AssetGUID": "8fb3a828-8da6-4f1f-9145-43ba9f82338f",
        "UnitAbbrev": "Live MD Test Unit",
        "UnitID": 4517733,
        "MAELower": 4.0,
        "MAEUpper": 4.0,
        "LastBuildStatus": "Update Successful",
        "LastBuildDate": "2022-04-27T15:32:50.64-05:00",
        "LastUpdateDate": "2022-08-24T15:26:29.39-05:00",
        "IsStandard": false,
        "AssetCriticality": 1,
        "ModelCriticality": 1,
        "ActionModelMaintenance": false,
        "MaintenanceAge": null,
        "ThirtyDayCountOfActions": null,
        "MeanAbsoluteError": 0.01447187,
        "InterQuartileRange": 4.26664,
        "BiasLower": null,
        "BiasUpper": null,
        "LowerBoundTolerance": 0.027134925,
        "UpperBoundTolerance": 0.027134925,
        "LowerCriticality": null,
        "UpperCriticality": null,
        "AssetTypeDesc": "Generic System",
        "VariableTypeDesc": ""
      },
      {
        "ModelID": 259101,
        "ModelExtID": "9A66C39A-35E5-43D8-9D2B-83ADCE39B495",
        "Active": true,
        "Built": true,
        "ModelName": "Model Import Scale Test Model 101",
        "ModelTypeID": 1,
        "ModelTypeAbbrev": "APR",
        "TagName": "tag10510",
        "TagDesc": "tag10510",
        "TagGroup": "Live MD Test Group/Live MD Test Station/Live MD Test Unit/tags 10001 - 11000/tags 10501 - 10600",
        "Score": 99,
        "EngUnits": "n/a",
        "PrioritizedOpMode": "Steady State",
        "AssetDesc": "tags 10501 - 10600",
        "AssetAbbrev": "tags 10501 - 10600",
        "AssetID": 4519120,
        "AssetGUID": "6d746937-0f0d-4551-8552-80b05a84d81b",
        "UnitAbbrev": "Live MD Test Unit",
        "UnitID": 4517733,
        "MAELower": 4.0,
        "MAEUpper": 4.0,
        "LastBuildStatus": "Update Successful",
        "LastBuildDate": "2022-08-24T12:51:06.5-05:00",
        "LastUpdateDate": "2022-08-24T12:52:01.477-05:00",
        "IsStandard": false,
        "AssetCriticality": 1,
        "ModelCriticality": 1,
        "ActionModelMaintenance": false,
        "MaintenanceAge": null,
        "ThirtyDayCountOfActions": 5,
        "MeanAbsoluteError": 0.092988476,
        "InterQuartileRange": 9.893343,
        "BiasLower": null,
        "BiasUpper": null,
        "LowerBoundTolerance": 0.075192764,
        "UpperBoundTolerance": 0.075192764,
        "LowerCriticality": null,
        "UpperCriticality": null,
        "AssetTypeDesc": "Generic System",
        "VariableTypeDesc": ""
      },
      {
        "ModelID": 259106,
        "ModelExtID": "1AE7D7B3-347C-44AB-A67B-0C27B9DBB14C",
        "Active": true,
        "Built": true,
        "ModelName": "Model Import Scale Test Model 106",
        "ModelTypeID": 1,
        "ModelTypeAbbrev": "APR",
        "TagName": "tag10535",
        "TagDesc": "tag10535",
        "TagGroup": "Live MD Test Group/Live MD Test Station/Live MD Test Unit/tags 10001 - 11000/tags 10501 - 10600",
        "Score": 98,
        "EngUnits": "n/a",
        "PrioritizedOpMode": "Steady State",
        "AssetDesc": "tags 10501 - 10600",
        "AssetAbbrev": "tags 10501 - 10600",
        "AssetID": 4519120,
        "AssetGUID": "6d746937-0f0d-4551-8552-80b05a84d81b",
        "UnitAbbrev": "Live MD Test Unit",
        "UnitID": 4517733,
        "MAELower": 4.0,
        "MAEUpper": 4.0,
        "LastBuildStatus": "Build Successful",
        "LastBuildDate": "2022-04-27T15:33:53.73-05:00",
        "LastUpdateDate": "2022-04-27T15:33:53.76-05:00",
        "IsStandard": false,
        "AssetCriticality": 1,
        "ModelCriticality": 1,
        "ActionModelMaintenance": true,
        "MaintenanceAge": 0,
        "ThirtyDayCountOfActions": 2,
        "MeanAbsoluteError": 0.034924008,
        "InterQuartileRange": 2.3631544,
        "BiasLower": null,
        "BiasUpper": null,
        "LowerBoundTolerance": 0.11822844,
        "UpperBoundTolerance": 0.11822844,
        "LowerCriticality": null,
        "UpperCriticality": null,
        "AssetTypeDesc": "Generic System",
        "VariableTypeDesc": ""
      },
      {
        "ModelID": 248990,
        "ModelExtID": "4986cce4-ee74-4b58-9ef7-45984ac5bd71",
        "Active": true,
        "Built": true,
        "ModelName": "Scale Test Model 130",
        "ModelTypeID": 6,
        "ModelTypeAbbrev": "Moving Average",
        "TagName": "tag0650",
        "TagDesc": "tag0650 model 130 output",
        "TagGroup": "Live MD Test Group/Live MD Test Station/Live MD Test Unit/tags 0001 - 1000/tags 0601 - 0700",
        "Score": null,
        "EngUnits": "n/a",
        "PrioritizedOpMode": "Steady State",
        "AssetDesc": "tags 0601 - 0700",
        "AssetAbbrev": "tags 0601 - 0700",
        "AssetID": 4518277,
        "AssetGUID": "5868172e-2f87-4d80-a5bd-960137d0a3ca",
        "UnitAbbrev": "Live MD Test Unit",
        "UnitID": 4517733,
        "MAELower": null,
        "MAEUpper": null,
        "LastBuildStatus": "Save",
        "LastBuildDate": "2021-11-10T15:51:01.217-06:00",
        "LastUpdateDate": "2022-08-24T15:33:41.957-05:00",
        "IsStandard": false,
        "AssetCriticality": 1,
        "ModelCriticality": 1,
        "ActionModelMaintenance": true,
        "MaintenanceAge": 49,
        "ThirtyDayCountOfActions": 3,
        "MeanAbsoluteError": null,
        "InterQuartileRange": 0.349388,
        "BiasLower": null,
        "BiasUpper": null,
        "LowerBoundTolerance": 0.0,
        "UpperBoundTolerance": 0.0,
        "LowerCriticality": null,
        "UpperCriticality": null,
        "AssetTypeDesc": "Generic System",
        "VariableTypeDesc": ""
      }
    ]
  ]
}
