{
  "Success": true,
  "StatusCode": 200,
  "Type": "ListServerResult",
  "Count": 1,
  "Results": [
    {
      "Id": "d467063b-6800-47bb-bb84-eca4d5d68285",
      "Name": "TEST\\LiveMDTestUnit",
      "AssetId": "d3aef33a-1c0e-4f84-85ca-44e0d3c6273a"
    }
  ]
}
