<svg width="18" height="18" viewBox="0 0 18 18" fill="none" xmlns="http://www.w3.org/2000/svg">
<path d="M15.538 12.8405L16.279 12.1905L15.629 11.066L14.6865 11.3845C14.4785 11.209 14.2445 11.0725 13.9845 10.975L13.7895 10H12.4895L12.2945 10.9685C12.0345 11.066 11.8005 11.2025 11.5925 11.378L10.65 11.0595L10 12.184L10.741 12.834C10.689 13.159 10.689 13.328 10.741 13.653L10 14.303L10.65 15.4275L11.5925 15.109C11.8005 15.2845 12.0345 15.421 12.2945 15.5185L12.4895 16.5H13.7895L13.9845 15.5315C14.2445 15.434 14.4785 15.2975 14.6865 15.122L15.629 15.4405L16.279 14.316L15.538 13.666C15.59 13.3345 15.59 13.1655 15.538 12.8405ZM13.1395 14.55C12.4245 14.55 11.8395 13.965 11.8395 13.25C11.8395 12.535 12.4245 11.95 13.1395 11.95C13.8545 11.95 14.4395 12.535 14.4395 13.25C14.4395 13.965 13.8545 14.55 13.1395 14.55Z" fill="currentColor"/>
<path d="M15.3 3C15.6866 3 16 3.29847 16 3.66667C16 4.03486 15.6866 4.33333 15.3 4.33333H4.8V5.66667H9.7C10.0866 5.66667 10.4 5.96514 10.4 6.33333C10.4 6.70153 10.0866 7 9.7 7H7.6V8.33333H12.5C12.8866 8.33333 13.2 8.63181 13.2 9C13.2 9.36819 12.8866 9.66667 12.5 9.66667H7.6V11H8.5C8.88657 11 9.2 11.2985 9.2 11.6667C9.2 12.0348 8.88657 12.3333 8.5 12.3333H7.075C6.59176 12.3333 6.2 11.9602 6.2 11.5V9.66667V7H4.8V13.6667H8.7C9.08658 13.6667 9.4 13.9652 9.4 14.3333C9.4 14.7015 9.08658 15 8.7 15H4.275C3.79175 15 3.4 14.6269 3.4 14.1667V4.33333H2.7C2.3134 4.33333 2 4.03486 2 3.66667C2 3.29847 2.3134 3 2.7 3H15.3Z" fill="currentColor"/>
</svg>
