<svg width="16" height="16" viewBox="0 0 16 16" fill="none" xmlns="http://www.w3.org/2000/svg">
<g filter="url(#filter0_df_2_15)">
<path d="M8 0.500244C3.86 0.500244 0.5 3.86024 0.5 8.00024C0.5 12.1402 3.86 15.5002 8 15.5002C12.14 15.5002 15.5 12.1402 15.5 8.00024C15.5 3.86024 12.14 0.500244 8 0.500244ZM8 8.75024C7.5875 8.75024 7.25 8.41274 7.25 8.00024V5.00024C7.25 4.58774 7.5875 4.25024 8 4.25024C8.4125 4.25024 8.75 4.58774 8.75 5.00024V8.00024C8.75 8.41274 8.4125 8.75024 8 8.75024ZM8 11.7502C7.5875 11.7502 7.25 11.4127 7.25 11.0002C7.25 10.5877 7.5875 10.2502 8 10.2502C8.4125 10.2502 8.75 10.5877 8.75 11.0002C8.75 11.4127 8.4125 11.7502 8 11.7502Z" fill="#D6A73C"/>
</g>
<defs>
<filter id="filter0_df_2_15" x="0.3" y="0.300244" width="15.4" height="15.4" filterUnits="userSpaceOnUse" color-interpolation-filters="sRGB">
<feFlood flood-opacity="0" result="BackgroundImageFix"/>
<feColorMatrix in="SourceAlpha" type="matrix" values="0 0 0 0 0 0 0 0 0 0 0 0 0 0 0 0 0 0 127 0" result="hardAlpha"/>
<feOffset dy="0.1"/>
<feGaussianBlur stdDeviation="0.05"/>
<feComposite in2="hardAlpha" operator="out"/>
<feColorMatrix type="matrix" values="0 0 0 0 0 0 0 0 0 0 0 0 0 0 0 0 0 0 0.25 0"/>
<feBlend mode="normal" in2="BackgroundImageFix" result="effect1_dropShadow_2_15"/>
<feBlend mode="normal" in="SourceGraphic" in2="effect1_dropShadow_2_15" result="shape"/>
<feGaussianBlur stdDeviation="0.1" result="effect2_foregroundBlur_2_15"/>
</filter>
</defs>
</svg>
