<svg width="20" height="20" viewBox="0 0 20 20" fill="none" xmlns="http://www.w3.org/2000/svg">
<g filter="url(#filter0_df_4_29)">
<path d="M15.0002 6.66671H14.1668V5.00004C14.1668 2.70004 12.3002 0.833374 10.0002 0.833374C7.70016 0.833374 5.8335 2.70004 5.8335 5.00004V6.66671H5.00016C4.0835 6.66671 3.3335 7.41671 3.3335 8.33337V16.6667C3.3335 17.5834 4.0835 18.3334 5.00016 18.3334H15.0002C15.9168 18.3334 16.6668 17.5834 16.6668 16.6667V8.33337C16.6668 7.41671 15.9168 6.66671 15.0002 6.66671ZM10.0002 14.1667C9.0835 14.1667 8.3335 13.4167 8.3335 12.5C8.3335 11.5834 9.0835 10.8334 10.0002 10.8334C10.9168 10.8334 11.6668 11.5834 11.6668 12.5C11.6668 13.4167 10.9168 14.1667 10.0002 14.1667ZM12.5835 6.66671H7.41683V5.00004C7.41683 3.57504 8.57516 2.41671 10.0002 2.41671C11.4252 2.41671 12.5835 3.57504 12.5835 5.00004V6.66671Z" fill="currentColor"/>
</g>
<defs>
<filter id="filter0_df_4_29" x="2.9335" y="0.533374" width="14.1333" height="18.3" filterUnits="userSpaceOnUse" color-interpolation-filters="sRGB">
<feFlood flood-opacity="0" result="BackgroundImageFix"/>
<feColorMatrix in="SourceAlpha" type="matrix" values="0 0 0 0 0 0 0 0 0 0 0 0 0 0 0 0 0 0 127 0" result="hardAlpha"/>
<feOffset dy="0.1"/>
<feGaussianBlur stdDeviation="0.2"/>
<feComposite in2="hardAlpha" operator="out"/>
<feColorMatrix type="matrix" values="0 0 0 0 0 0 0 0 0 0 0 0 0 0 0 0 0 0 0.25 0"/>
<feBlend mode="normal" in2="BackgroundImageFix" result="effect1_dropShadow_4_29"/>
<feBlend mode="normal" in="SourceGraphic" in2="effect1_dropShadow_4_29" result="shape"/>
<feGaussianBlur stdDeviation="0.15" result="effect2_foregroundBlur_4_29"/>
</filter>
</defs>
</svg>
