<svg width="20" height="20" viewBox="0 0 20 20" fill="none" xmlns="http://www.w3.org/2000/svg">
<path d="M9.99999 1.66663C5.39999 1.66663 1.66666 5.39996 1.66666 9.99996C1.66666 14.6 5.39999 18.3333 9.99999 18.3333C14.6 18.3333 18.3333 14.6 18.3333 9.99996C18.3333 5.39996 14.6 1.66663 9.99999 1.66663Z" fill="#7A7A7A" fill-opacity="0.4"/>
<g filter="url(#filter0_d_3900_1038)">
<path d="M15 12.0857V7.98571C15 7.47143 14.7286 7 14.2857 6.75L10.7143 4.69286C10.4929 4.56429 10.25 4.5 10 4.5C9.75 4.5 9.50714 4.56429 9.28571 4.69286L5.71429 6.74286C5.27143 7 5 7.47143 5 7.98571V12.0857C5 12.6 5.27143 13.0714 5.71429 13.3214L9.28571 15.3786C9.50714 15.5071 9.75 15.5714 10 15.5714C10.25 15.5714 10.4929 15.5071 10.7143 15.3786L14.2857 13.3214C14.7286 13.0714 15 12.6 15 12.0857ZM9.28571 13.7286L6.42857 12.0857V8.77857L9.28571 10.4429V13.7286ZM10 9.20714L7.17143 7.55714L10 5.92857L12.8286 7.55714L10 9.20714ZM13.5714 12.0857L10.7143 13.7286V10.4429L13.5714 8.77857V12.0857Z" fill="white" fill-opacity="0.7"/>
</g>
<defs>
<filter id="filter0_d_3900_1038" x="4.75" y="4.5" width="10.5" height="11.5714" filterUnits="userSpaceOnUse" color-interpolation-filters="sRGB">
<feFlood flood-opacity="0" result="BackgroundImageFix"/>
<feColorMatrix in="SourceAlpha" type="matrix" values="0 0 0 0 0 0 0 0 0 0 0 0 0 0 0 0 0 0 127 0" result="hardAlpha"/>
<feOffset dy="0.25"/>
<feGaussianBlur stdDeviation="0.125"/>
<feComposite in2="hardAlpha" operator="out"/>
<feColorMatrix type="matrix" values="0 0 0 0 0 0 0 0 0 0 0 0 0 0 0 0 0 0 0.25 0"/>
<feBlend mode="normal" in2="BackgroundImageFix" result="effect1_dropShadow_3900_1038"/>
<feBlend mode="normal" in="SourceGraphic" in2="effect1_dropShadow_3900_1038" result="shape"/>
</filter>
</defs>
</svg>
