<svg width="32" height="30" viewBox="0 0 32 30" fill="none" xmlns="http://www.w3.org/2000/svg">
<g clip-path="url(#clip0)">
<path d="M21.7623 22.7944C26 21.5 29.6018 17.2905 29.6018 17.2905L26.2886 27.3026C25.5101 29.095 23.428 30.2718 21.02 29.5838C21.02 29.5838 15.0635 28.6243 11.1709 23.0298C12.3115 23.0298 17.5 24 21.7623 22.7944Z" fill="#8D807D"/>
<path d="M10.9723 24.2868C13.5373 27.8999 18.6679 29.9901 18.6679 29.9901L8.12192 30.0039C6.17546 29.8304 4.40201 28.2258 4.29539 25.7238C4.29539 25.7238 3.32725 19.7686 7.4084 14.3102C7.76816 15.3926 8.48397 20.6223 10.9723 24.2868Z" fill="#00578B"/>
<path d="M6.49094 14.37C3.92894 17.9852 3.65233 23.5184 3.65233 23.5184L0.152953 13.5699C-0.326828 11.6755 0.601294 9.47129 2.92742 8.54352C2.92742 8.54352 8.2277 5.66111 14.7284 7.70831C13.8258 8.40567 9.1268 10.8101 6.49094 14.37Z" fill="#4D8D46"/>
<path d="M14.5834 7.07983C10.399 5.6222 5.00655 6.8926 5.00655 6.8926L13.5925 0.768841C15.2792 -0.217995 17.6544 0.0617036 19.1915 2.03882C19.1915 2.03882 23.4321 6.33052 23.2701 13.144C22.3496 12.4705 18.7351 8.62376 14.5834 7.07983Z" fill="#DF2927"/>
<path d="M23.971 12.3657C24 8.5 21.1285 3.22266 21.1285 3.22266L29.656 9.43268C31.1225 10.7362 31.6113 13.0718 30.2172 15.1539C30.2172 15.1539 27.4834 20.5311 20.9656 22.5226C21.2734 21.4363 23.5 17 23.971 12.3657Z" fill="#35363A"/>
</g>
<defs>
<clipPath id="clip0">
<rect width="31.1225" height="30" fill="white"/>
</clipPath>
</defs>
</svg>
