<svg width="24px" height="24px" viewBox="0 0 24 24" fill="none" xmlns="http://www.w3.org/2000/svg">
<path d="M8 12.5L11 15.5L16 9.5" stroke="#80CBC4" stroke-width="2" stroke-linecap="round" stroke-linejoin="round"/>
<circle cx="12" cy="12" r="10" stroke="#80CBC4" stroke-width="2"/>
</svg>
