<?xml version="1.0" encoding="iso-8859-1"?>
<!-- Generator: Adobe Illustrator 19.0.0, SVG Export Plug-In . SVG Version: 6.00 Build 0)  -->
<svg version="1.1" id="Layer_1" xmlns="http://www.w3.org/2000/svg" xmlns:xlink="http://www.w3.org/1999/xlink" x="0px" y="0px"
	 viewBox="0 0 511.483 511.483" style="enable-background:new 0 0 511.483 511.483;" xml:space="preserve">
<g>
	<g>
		<path d="M443.667,242.939L273,8.272c-8.043-11.029-26.475-11.029-34.517,0L67.816,242.939c-5.419,7.488-5.419,17.6,0,25.088
			l170.667,234.667c4.032,5.525,10.432,8.789,17.259,8.789s13.227-3.264,17.259-8.789l170.667-234.667
			C449.085,260.539,449.085,250.427,443.667,242.939z" fill="#55A362"/>
	</g>
</g>
<g>
</g>
<g>
</g>
<g>
</g>
<g>
</g>
<g>
</g>
<g>
</g>
<g>
</g>
<g>
</g>
<g>
</g>
<g>
</g>
<g>
</g>
<g>
</g>
<g>
</g>
<g>
</g>
<g>
</g>
</svg>
