<svg width="18" height="18" viewBox="0 0 18 18" fill="none" xmlns="http://www.w3.org/2000/svg">
<g clip-path="url(#clip0)">
<path d="M2.25 16.5L15.75 16.5C16.575 16.5 17.25 15.825 17.25 15V3C17.25 2.175 16.575 1.5 15.75 1.5L2.25 1.5C1.425 1.5 0.75 2.175 0.75 3V15C0.75 15.825 1.425 16.5 2.25 16.5ZM15.75 3L15.75 15H9.75L9.75 3L15.75 3ZM2.25 3H8.25L8.25 15H2.25L2.25 3ZM7.5 10.125L3 10.125L3 9L7.5 9L7.5 10.125ZM7.5 8.25H3V7.125H7.5V8.25ZM7.5 6.375H3V5.25H7.5V6.375Z" fill="white"/>
</g>
<defs>
<clipPath id="clip0">
<rect width="18" height="18" fill="white" transform="translate(18 18) rotate(-180)"/>
</clipPath>
</defs>
</svg>
