<svg width="402" height="119" viewBox="0 0 402 119" fill="none" xmlns="http://www.w3.org/2000/svg">
<path d="M1.70963 118L22.0344 116.973L29.0378 32.6111L42.201 34.2068L47.1637 115.088L65.4361 115.063L73.9939 68.4604C73.9939 68.4604 77.0675 86.7062 79.0369 98.3974L87.6202 35.6467L96.1066 34.1351L99.3759 112.629L121.434 112.6L130 61.2564L135.056 82.638L141.862 71.2218L148.583 112.564L179.128 111.097L180.944 35.5225L192.824 34.0064L206.275 112.487L224.939 112.462L225.046 45.4451L231.84 41.1584L238.636 35.4458L248.697 111.005L253.799 103.868L260.572 112.415L270.753 112.401L277.665 33.8935L291.241 32.524L299.595 114.752L330.138 114.711L333.648 41.0229L350.625 35.2968L362.377 114.668L392.919 114.628" stroke="url(#paint0_linear)" stroke-opacity="0.6" stroke-width="2"/>
<path d="M401 1.00004L380.419 1.93707L372.619 94L359.309 92.1376L354.968 3.76679L336.473 3.62704L327.418 54.4418C327.418 54.4418 324.461 34.4885 322.566 21.7033L313.349 90.1518L304.747 91.7254L302.1 5.97635L279.772 5.80766L270.67 61.7992L265.732 38.4034L258.748 50.8085L252.293 5.60005L221.364 6.92359L218.888 89.4381L206.85 90.9857L193.899 5.15885L175.006 5.01611L174.334 78.2009L167.421 82.8204L160.494 88.9969L150.947 6.39157L145.723 14.1383L138.939 4.74362L128.634 4.66576L120.977 90.3369L107.223 91.7089L99.4613 1.83634L68.5467 1.60276L64.3721 82.0418L47.1401 88.1405L35.9146 1.35621L5.00001 1.12265" stroke="url(#paint1_linear)" stroke-opacity="0.6" stroke-width="2"/>
<defs>
<linearGradient id="paint0_linear" x1="393" y1="116.37" x2="156" y2="116.37" gradientUnits="userSpaceOnUse">
<stop stop-color="#9A9A9A"/>
<stop offset="1" stop-color="#9A9A9A" stop-opacity="0"/>
</linearGradient>
<linearGradient id="paint1_linear" x1="401" y1="1.00001" x2="169" y2="0.999998" gradientUnits="userSpaceOnUse">
<stop stop-color="#B1B1B1"/>
<stop offset="1" stop-color="#C0C0C0" stop-opacity="0"/>
</linearGradient>
</defs>
</svg>
