<svg width="24" height="24" viewBox="0 0 24 24" fill="none" xmlns="http://www.w3.org/2000/svg">
<path d="M17.9941 0.720345C10.896 2.41949 6.96186 3.36068 4.79186 3.87709C3.69029 4.13529 3.06911 5.28471 3.44182 6.35083C3.86422 7.5419 4.40258 9.07447 4.99892 10.7569L11.451 4.15195C12.0639 3.51893 13.1323 3.96038 13.124 4.84327C13.0909 8.4498 13.0246 13.4473 12.9998 15.8627C12.9915 16.5457 12.3123 17.0038 11.6746 16.7623C10.2334 16.2042 8.21252 15.4296 6.39866 14.7216C7.29317 17.2454 8.20424 19.8357 8.99107 22.0679C9.57086 23.7171 11.8651 23.767 12.5277 22.1429L20.189 3.27739C20.777 1.86144 19.4933 0.362193 17.9941 0.720345Z" fill="#70D44B"/>
</svg>
