{
  "FirstName": "Testing",
  "LastName": "Automation",
  "DisplayName": "Testing Automation",
  "UserName": "testautomationuser1@atonixtest.com",
  "Email": "testautomationuser1@atonixtest.com",
  "IsBV": false,
  "NERCCIP": false,
  "ServiceAccount": false,
  "UserValidated": false
}
