[
  {
    "Name": "Beta",
    "Rights": {
      "CanView": true,
      "CanAdd": false,
      "CanEdit": false,
      "CanDelete": false
    }
  },
  {
    "Name": "Alpha",
    "Rights": {
      "CanView": false,
      "CanAdd": false,
      "CanEdit": false,
      "CanDelete": false
    }
  }
]
