{
  "$schema": "..\\..\\node_modules\\nx\\schemas\\project-schema.json",
  "projectType": "application",
  "generators": {
    "@nrwl/angular:component": {
      "style": "scss"
    }
  },
  "sourceRoot": "apps/atx-ev/src",
  "prefix": "atx",
  "targets": {
    "build": {
      "executor": "@angular-devkit/build-angular:browser",
      "options": {
        "outputPath": "dist/apps/atx-ev",
        "index": "apps/atx-ev/src/index.html",
        "main": "apps/atx-ev/src/main.ts",
        "polyfills": "apps/atx-ev/src/polyfills.ts",
        "tsConfig": "apps/atx-ev/tsconfig.app.json",
        "assets": [
          "apps/atx-ev/src/assets",
          {
            "glob": "**/*",
            "input": "./libs/atx-navigation/assets/",
            "output": "./assets"
          },
          "apps/atx-ev/src/web.config",
          {
            "glob": "**/*",
            "input": "./apps/build-specifics/local-dev/",
            "output": "./assets"
          }
        ],
        "styles": [
          "apps/atx-ev/src/styles.scss",
          "libs/atx-navigation/theme/atonix-theme.scss"
        ],
        "scripts": [],
        "allowedCommonJsDependencies": [
          "crypto-js",
          "buffer",
          "js-cookie",
          "jwt-decode",
          "highcharts",
          "lodash",
          "isomorphic-unfetch"
        ],
        "vendorChunk": true,
        "extractLicenses": false,
        "buildOptimizer": false,
        "sourceMap": true,
        "optimization": false,
        "namedChunks": true
      },
      "configurations": {
        "local": {
          "assets": [
            "apps/atx-ev/src/assets",
            {
              "glob": "**/*",
              "input": "./libs/atx-navigation/assets/",
              "output": "./assets"
            },
            "apps/atx-ev/src/web.config",
            {
              "glob": "**/*",
              "input": "./apps/build-specifics/local-visual-studio/",
              "output": "./assets"
            }
          ]
        },
        "test": {
          "assets": [
            "apps/atx-ev/src/assets",
            {
              "glob": "**/*",
              "input": "./libs/atx-navigation/assets/",
              "output": "./assets"
            },
            "apps/atx-ev/src/web.config",
            {
              "glob": "**/*",
              "input": "./apps/build-specifics/site-test/",
              "output": "./assets"
            }
          ],
          "fileReplacements": [
            {
              "replace": "apps/build-specifics/environment.ts",
              "with": "apps/build-specifics/environment.prod.ts"
            }
          ],
          "optimization": true,
          "outputHashing": "all",
          "sourceMap": false,
          "namedChunks": false,
          "vendorChunk": false,
          "buildOptimizer": true,
          "budgets": [
            {
              "type": "initial",
              "maximumWarning": "2mb",
              "maximumError": "7mb"
            },
            {
              "type": "anyComponentStyle",
              "maximumWarning": "6kb"
            }
          ],
          "baseHref": "/EV/",
          "deployUrl": "/EV/"
        },
        "dev": {
          "assets": [
            "apps/atx-ev/src/assets",
            {
              "glob": "**/*",
              "input": "./libs/atx-navigation/assets/",
              "output": "./assets"
            },
            "apps/atx-ev/src/web.config",
            {
              "glob": "**/*",
              "input": "./apps/build-specifics/site-dev/",
              "output": "./assets"
            }
          ],
          "fileReplacements": [
            {
              "replace": "apps/build-specifics/environment.ts",
              "with": "apps/build-specifics/environment.prod.ts"
            }
          ],
          "optimization": true,
          "outputHashing": "all",
          "sourceMap": false,
          "namedChunks": false,
          "vendorChunk": false,
          "buildOptimizer": true,
          "budgets": [
            {
              "type": "initial",
              "maximumWarning": "2mb",
              "maximumError": "7mb"
            },
            {
              "type": "anyComponentStyle",
              "maximumWarning": "6kb"
            }
          ],
          "baseHref": "/EV/",
          "deployUrl": "/EV/"
        },
        "stage": {
          "assets": [
            "apps/atx-ev/src/assets",
            {
              "glob": "**/*",
              "input": "./libs/atx-navigation/assets/",
              "output": "./assets"
            },
            "apps/atx-ev/src/web.config",
            {
              "glob": "**/*",
              "input": "./apps/build-specifics/site-stage/",
              "output": "./assets"
            }
          ],
          "fileReplacements": [
            {
              "replace": "apps/build-specifics/environment.ts",
              "with": "apps/build-specifics/environment.prod.ts"
            }
          ],
          "optimization": true,
          "outputHashing": "all",
          "sourceMap": false,
          "namedChunks": false,
          "vendorChunk": false,
          "buildOptimizer": true,
          "budgets": [
            {
              "type": "initial",
              "maximumWarning": "5mb",
              "maximumError": "7mb"
            },
            {
              "type": "anyComponentStyle",
              "maximumWarning": "6kb"
            }
          ],
          "baseHref": "/EV/",
          "deployUrl": "/EV/"
        },
        "production": {
          "assets": [
            "apps/atx-ev/src/assets",
            {
              "glob": "**/*",
              "input": "./libs/atx-navigation/assets/",
              "output": "./assets"
            },
            "apps/atx-ev/src/web.config",
            {
              "glob": "**/*",
              "input": "./apps/build-specifics/prod/",
              "output": "./assets"
            }
          ],
          "fileReplacements": [
            {
              "replace": "apps/build-specifics/environment.ts",
              "with": "apps/build-specifics/environment.prod.ts"
            }
          ],
          "optimization": true,
          "outputHashing": "all",
          "sourceMap": false,
          "namedChunks": false,
          "vendorChunk": false,
          "buildOptimizer": true,
          "budgets": [
            {
              "type": "initial",
              "maximumWarning": "5mb",
              "maximumError": "7mb"
            },
            {
              "type": "anyComponentStyle",
              "maximumWarning": "6kb"
            }
          ],
          "baseHref": "/EV/",
          "deployUrl": "/EV/"
        }
      },
      "outputs": ["{options.outputPath}"],
      "defaultConfiguration": ""
    },
    "serve": {
      "executor": "@angular-devkit/build-angular:dev-server",
      "options": {
        "browserTarget": "atx-ev:build"
      },
      "configurations": {
        "production": {
          "browserTarget": "atx-ev:build:production"
        },
        "test": {
          "browserTarget": "atx-ev:build:test"
        },
        "dev": {
          "browserTarget": "atx-ev:build:dev"
        },
        "stage": {
          "browserTarget": "atx-ev:build:stage"
        },
        "local": {
          "browserTarget": "atx-ev:build:local"
        }
      }
    },
    "extract-i18n": {
      "executor": "@angular-devkit/build-angular:extract-i18n",
      "options": {
        "browserTarget": "atx-ev:build"
      }
    },
    "lint": {
      "executor": "@nrwl/linter:eslint",
      "options": {
        "lintFilePatterns": ["apps/atx-ev/**/*.ts", "apps/atx-ev/**/*.html"]
      }
    },
    "test": {
      "executor": "@nrwl/jest:jest",
      "outputs": ["coverage/apps/atx-ev"],
      "options": {
        "jestConfig": "apps/atx-ev/jest.config.ts",
        "passWithNoTests": true
      }
    }
  },
  "tags": ["type:app"]
}
