[
  {
    "name": "Tag0123 Model",
    "path": "Live MD Test Group/Live MD Test Station/Live MD Test Unit/HH and LL Testing",
    "legacy": {
      "modelID": 180363,
      "modelTemplateID": null,
      "opModeParamsID": 131937
    },
    "modelExtID": "2b7eec22-0772-4850-b562-1943df8eefca",
    "active": true,
    "locked": false,
    "standardModel": false,
    "properties": {
      "modelType": { "type": "moving_average", "properties": {} },
      "opModeTypes": ["steady_state"],
      "predictiveTypeSelected": "expavg",
      "predictiveTypes": [
        {
          "type": "expavg",
          "properties": {
            "interquartileRange": 2.7335,
            "meanAbsoluteError": 0.12245294,
            "rootMeanSquareError": 0.39009887,
            "rPearsonsCorrelationCoefficient": 0.97654223,
            "score": 95
          }
        }
      ]
    },
    "alerts": [
      {
        "type": "average_anomaly",
        "enabled": false,
        "notificationEnabled": false,
        "properties": {
          "evaluationPeriodUnitOfTime": "N/A",
          "averageEvalPeriod": null,
          "averagingWindowUnitOfTime": "N/A",
          "averagingWindow": null,
          "useMeanAbsoluteError": null,
          "threshold": null
        }
      },
      {
        "type": "anomaly_area",
        "enabled": false,
        "notificationEnabled": false,
        "properties": {
          "areaFastResponsePeriodUnitOfTime": "N/A",
          "areaFastResponsePeriod": null,
          "areaFastResponse": null,
          "areaSlowResponsePeriodUnitOfTime": "N/A",
          "areaSlowResponsePeriod": null,
          "areaSlowResponse": null
        }
      },
      {
        "type": "anomaly_frequency",
        "enabled": true,
        "notificationEnabled": false,
        "properties": {
          "evaluationPeriodUnitOfTime": "Seconds",
          "evaluationPeriod": 14400,
          "threshold": 70
        }
      },
      {
        "type": "anomaly_oscillation",
        "enabled": true,
        "notificationEnabled": false,
        "properties": {
          "evaluationPeriodUnitOfTime": "Seconds",
          "evaluationPeriod": 7200,
          "threshold": 80
        }
      },
      {
        "type": "high_high",
        "enabled": false,
        "notificationEnabled": false,
        "properties": { "useMeanAbsoluteError": null, "threshold": null }
      },
      {
        "type": "low_low",
        "enabled": false,
        "notificationEnabled": false,
        "properties": { "useMeanAbsoluteError": null, "threshold": null }
      },
      {
        "type": "frozen_data_check",
        "enabled": false,
        "notificationEnabled": false,
        "properties": {
          "evaluationPeriodUnitOfTime": "N/A",
          "evaluationPeriod": null
        }
      }
    ],
    "anomalies": [
      {
        "type": "relative_bounds",
        "enabled": true,
        "properties": {
          "upperMultiplier": 0,
          "upperBiasEnabled": false,
          "upperBias": null,
          "lowerMultiplier": null,
          "lowerBiasEnabled": true,
          "lowerBias": -2.34
        }
      },
      {
        "type": "upper_fixed_limit",
        "enabled": true,
        "properties": { "upperFixedLimit": 0 }
      },
      {
        "type": "lower_fixed_limit",
        "enabled": false,
        "properties": { "lowerFixedLimit": null }
      },
      {
        "type": "criticality",
        "enabled": true,
        "properties": {
          "upperBound": "Asset",
          "lowerBound": "Asset",
          "useDefault": true,
          "upperBoundDefault": "Asset",
          "lowerBoundDefault": "Asset"
        }
      }
    ],
    "dependent": {
      "tagGuid": "f4fdd3e5-43e5-4e02-9e1f-d9c3113bce75",
      "tagName": "tag0123",
      "tagDesc": "tag0123",
      "assetVariableTagMapID": 1200000280,
      "assetGuid": "5096136b-0345-42e9-acd1-7e4e142f1296",
      "tagUnits": "n/a",
      "processDataServerGuid": "b25fec92-0a23-4683-9a3a-0897af102a79"
    },
    "independents": [],
    "training": {
      "rangeType": "relative",
      "range": [],
      "durationUnitOfTime": "Days",
      "duration": 344,
      "lagUnitOfTime": "Days",
      "lag": 0,
      "sampleRateUnitOfTime": "Minutes",
      "sampleRate": 10,
      "minDataPoints": 1750,
      "smoothingFactorActual": 23,
      "smoothingFactorExpected": 220,
      "autoRetrain": false
    },
    "buildProperties": {
      "status": {
        "built": true,
        "lastSaved": "2022-09-28T20:58:51.483Z",
        "builtSinceTime": "2022-09-28T20:58:51.453Z",
        "buildState": "Build Successful",
        "changedBy": "RinckD@atonix.com"
      }
    }
  }
]
