{
  "Success": true,
  "StatusCode": 200,
  "Type": "IModelTypeVersion",
  "Count": 1,
  "Results": [
    {
      "Name": "ea",
      "Version": "v2",
      "Description": "Updated calculation of 'Expected' values based on measured data",
      "Updates": []
    }
  ]
}
