{
  "$schema": "..\\..\\node_modules\\nx\\schemas\\project-schema.json",
  "sourceRoot": "apps/atx-ae-e2e/src",
  "projectType": "application",
  "targets": {
    "e2e": {
      "executor": "@nrwl/cypress:cypress",
      "options": {
        "cypressConfig": "apps/atx-ae-e2e/cypress.config.ts",
        "tsConfig": "apps/atx-ae-e2e/tsconfig.e2e.json",
        "devServerTarget": "atx-ae:serve",
        "testingType": "e2e"
      },
      "configurations": {
        "production": {
          "devServerTarget": "atx-ae:serve:production"
        }
      }
    },
    "lint": {
      "executor": "@nrwl/linter:eslint",
      "options": {
        "lintFilePatterns": [
          "apps/atx-ae-e2e/**/*.ts",
          "apps/atx-ae-e2e/**/*.html"
        ]
      }
    }
  },
  "tags": ["type:e2e"],
  "implicitDependencies": ["atx-ae"]
}
