{
  "Errors": null,
  "Measurements": [
    {
      "Tag": {
        "PDTagID": 9850915,
        "PDServerID": 1125,
        "TagName": "tag0007",
        "TagDesc": "tag0007 model 2 input",
        "EngUnits": "n/a",
        "Qualifier": "A",
        "Mapping": "tag0007",
        "ExistsOnServer": true,
        "ChangeDate": "2022-08-02T15:39:08.533-05:00",
        "ExternalID": "",
        "GlobalID": "699a3767-9019-4a90-b7d5-e046b4d1cba1",
        "NDCreated": false,
        "NDPath": "",
        "NDName": "",
        "NDId": ""
      },
      "Archive": "",
      "Data": [
        {
          "Status": 0,
          "Value": 1.0266639,
          "Timestamp": "2022-07-31T09:00:00Z"
        },
        {
          "Status": 69,
          "Value": 1.28332961,
          "Timestamp": "2022-07-31T10:00:00Z"
        },
        {
          "Status": 0,
          "Value": 1.53999615,
          "Timestamp": "2022-07-31T11:00:00Z"
        },
        {
          "Status": 0,
          "Value": 1.79666126,
          "Timestamp": "2022-07-31T12:00:00Z"
        },
        { "Status": 0, "Value": 2.053329, "Timestamp": "2022-07-31T13:00:00Z" },
        { "Status": 0, "Value": 2.309994, "Timestamp": "2022-07-31T14:00:00Z" },
        {
          "Status": 69,
          "Value": 2.5666585,
          "Timestamp": "2022-07-31T15:00:00Z"
        },
        {
          "Status": 69,
          "Value": 2.8233254,
          "Timestamp": "2022-07-31T16:00:00Z"
        },
        {
          "Status": 69,
          "Value": 3.07999229,
          "Timestamp": "2022-07-31T17:00:00Z"
        },
        {
          "Status": 69,
          "Value": 3.33665586,
          "Timestamp": "2022-07-31T18:00:00Z"
        },
        {
          "Status": 69,
          "Value": 3.59332323,
          "Timestamp": "2022-07-31T19:00:00Z"
        },
        {
          "Status": 69,
          "Value": 3.84998965,
          "Timestamp": "2022-07-31T20:00:00Z"
        },
        {
          "Status": 0,
          "Value": 4.10665655,
          "Timestamp": "2022-07-31T21:00:00Z"
        },
        { "Status": 0, "Value": 4.363322, "Timestamp": "2022-07-31T22:00:00Z" },
        {
          "Status": 69,
          "Value": 4.619984,
          "Timestamp": "2022-07-31T23:00:00Z"
        },
        {
          "Status": 69,
          "Value": 4.87665129,
          "Timestamp": "2022-08-01T00:00:00Z"
        },
        {
          "Status": 0,
          "Value": 5.13331747,
          "Timestamp": "2022-08-01T01:00:00Z"
        },
        {
          "Status": 69,
          "Value": 5.38998461,
          "Timestamp": "2022-08-01T02:00:00Z"
        },
        {
          "Status": 69,
          "Value": 5.646651,
          "Timestamp": "2022-08-01T03:00:00Z"
        },
        { "Status": 0, "Value": 5.903318, "Timestamp": "2022-08-01T04:00:00Z" },
        { "Status": 69, "Value": 0.0, "Timestamp": "2022-08-01T05:00:00Z" },
        {
          "Status": 0,
          "Value": 0.256665826,
          "Timestamp": "2022-08-01T06:00:00Z"
        },
        {
          "Status": 69,
          "Value": 0.51333195,
          "Timestamp": "2022-08-01T07:00:00Z"
        },
        {
          "Status": 0,
          "Value": 0.769997954,
          "Timestamp": "2022-08-01T08:00:00Z"
        },
        {
          "Status": 0,
          "Value": 1.02666438,
          "Timestamp": "2022-08-01T09:00:00Z"
        },
        {
          "Status": 69,
          "Value": 1.28332949,
          "Timestamp": "2022-08-01T10:00:00Z"
        },
        {
          "Status": 0,
          "Value": 1.53999627,
          "Timestamp": "2022-08-01T11:00:00Z"
        },
        {
          "Status": 0,
          "Value": 1.79666126,
          "Timestamp": "2022-08-01T12:00:00Z"
        },
        {
          "Status": 0,
          "Value": 2.05332851,
          "Timestamp": "2022-08-01T13:00:00Z"
        },
        { "Status": 0, "Value": 2.309995, "Timestamp": "2022-08-01T14:00:00Z" },
        {
          "Status": 69,
          "Value": 2.56665826,
          "Timestamp": "2022-08-01T15:00:00Z"
        },
        {
          "Status": 0,
          "Value": 2.82332373,
          "Timestamp": "2022-08-01T16:00:00Z"
        },
        {
          "Status": 0,
          "Value": 3.07999063,
          "Timestamp": "2022-08-01T17:00:00Z"
        },
        {
          "Status": 0,
          "Value": 3.33665729,
          "Timestamp": "2022-08-01T18:00:00Z"
        },
        {
          "Status": 69,
          "Value": 3.593323,
          "Timestamp": "2022-08-01T19:00:00Z"
        },
        {
          "Status": 69,
          "Value": 3.84999061,
          "Timestamp": "2022-08-01T20:00:00Z"
        },
        {
          "Status": 69,
          "Value": 4.106658,
          "Timestamp": "2022-08-01T21:00:00Z"
        },
        { "Status": 0, "Value": 4.36332, "Timestamp": "2022-08-01T22:00:00Z" },
        { "Status": 0, "Value": 4.619987, "Timestamp": "2022-08-01T23:00:00Z" },
        { "Status": 0, "Value": 4.876653, "Timestamp": "2022-08-02T00:00:00Z" },
        {
          "Status": 69,
          "Value": 5.13331652,
          "Timestamp": "2022-08-02T01:00:00Z"
        },
        {
          "Status": 69,
          "Value": 5.38998461,
          "Timestamp": "2022-08-02T02:00:00Z"
        },
        {
          "Status": 69,
          "Value": 5.64665127,
          "Timestamp": "2022-08-02T03:00:00Z"
        },
        { "Status": 0, "Value": 5.903315, "Timestamp": "2022-08-02T04:00:00Z" },
        { "Status": 0, "Value": 0.0, "Timestamp": "2022-08-02T05:00:00Z" },
        {
          "Status": 0,
          "Value": 0.2566659,
          "Timestamp": "2022-08-02T06:00:00Z"
        },
        {
          "Status": 0,
          "Value": 0.5133322,
          "Timestamp": "2022-08-02T07:00:00Z"
        },
        {
          "Status": 69,
          "Value": 0.769997835,
          "Timestamp": "2022-08-02T08:00:00Z"
        },
        {
          "Status": 0,
          "Value": 1.0266639,
          "Timestamp": "2022-08-02T09:00:00Z"
        },
        {
          "Status": 69,
          "Value": 1.28332949,
          "Timestamp": "2022-08-02T10:00:00Z"
        },
        {
          "Status": 69,
          "Value": 1.53999615,
          "Timestamp": "2022-08-02T11:00:00Z"
        },
        {
          "Status": 69,
          "Value": 1.79666126,
          "Timestamp": "2022-08-02T12:00:00Z"
        },
        {
          "Status": 69,
          "Value": 2.053329,
          "Timestamp": "2022-08-02T13:00:00Z"
        },
        {
          "Status": 69,
          "Value": 2.309994,
          "Timestamp": "2022-08-02T14:00:00Z"
        },
        {
          "Status": 0,
          "Value": 2.5666585,
          "Timestamp": "2022-08-02T15:00:00Z"
        },
        {
          "Status": 0,
          "Value": 2.8233254,
          "Timestamp": "2022-08-02T16:00:00Z"
        },
        {
          "Status": 69,
          "Value": 3.07999229,
          "Timestamp": "2022-08-02T17:00:00Z"
        },
        {
          "Status": 69,
          "Value": 3.33665586,
          "Timestamp": "2022-08-02T18:00:00Z"
        },
        {
          "Status": 69,
          "Value": 3.59332323,
          "Timestamp": "2022-08-02T19:00:00Z"
        },
        { "Status": 0, "Value": 3.84999, "Timestamp": "2022-08-02T20:00:00Z" },
        {
          "Status": 0,
          "Value": 4.10665655,
          "Timestamp": "2022-08-02T21:00:00Z"
        },
        {
          "Status": 69,
          "Value": 4.3633213,
          "Timestamp": "2022-08-02T22:00:00Z"
        },
        {
          "Status": 69,
          "Value": 4.61998367,
          "Timestamp": "2022-08-02T23:00:00Z"
        },
        {
          "Status": 69,
          "Value": 4.87665129,
          "Timestamp": "2022-08-03T00:00:00Z"
        },
        {
          "Status": 0,
          "Value": 5.13331747,
          "Timestamp": "2022-08-03T01:00:00Z"
        },
        {
          "Status": 0,
          "Value": 5.38998461,
          "Timestamp": "2022-08-03T02:00:00Z"
        },
        {
          "Status": 69,
          "Value": 5.646651,
          "Timestamp": "2022-08-03T03:00:00Z"
        },
        {
          "Status": 69,
          "Value": 5.90331745,
          "Timestamp": "2022-08-03T04:00:00Z"
        },
        { "Status": 0, "Value": 0.0, "Timestamp": "2022-08-03T05:00:00Z" },
        {
          "Status": 0,
          "Value": 0.256665826,
          "Timestamp": "2022-08-03T06:00:00Z"
        },
        { "Status": 0, "Value": 0.513332, "Timestamp": "2022-08-03T07:00:00Z" },
        {
          "Status": 69,
          "Value": 0.7699979,
          "Timestamp": "2022-08-03T08:00:00Z"
        },
        {
          "Status": 69,
          "Value": 1.02666438,
          "Timestamp": "2022-08-03T09:00:00Z"
        },
        {
          "Status": 69,
          "Value": 1.28332937,
          "Timestamp": "2022-08-03T10:00:00Z"
        },
        {
          "Status": 69,
          "Value": 1.53999639,
          "Timestamp": "2022-08-03T11:00:00Z"
        },
        {
          "Status": 0,
          "Value": 1.79666126,
          "Timestamp": "2022-08-03T12:00:00Z"
        },
        {
          "Status": 0,
          "Value": 2.05332851,
          "Timestamp": "2022-08-03T13:00:00Z"
        },
        {
          "Status": 69,
          "Value": 2.3099947,
          "Timestamp": "2022-08-03T14:00:00Z"
        },
        {
          "Status": 69,
          "Value": 2.56665826,
          "Timestamp": "2022-08-03T15:00:00Z"
        },
        {
          "Status": 0,
          "Value": 2.82332373,
          "Timestamp": "2022-08-03T16:00:00Z"
        },
        {
          "Status": 0,
          "Value": 3.07999063,
          "Timestamp": "2022-08-03T17:00:00Z"
        },
        {
          "Status": 69,
          "Value": 3.33665752,
          "Timestamp": "2022-08-03T18:00:00Z"
        },
        { "Status": 0, "Value": 3.593323, "Timestamp": "2022-08-03T19:00:00Z" },
        {
          "Status": 69,
          "Value": 3.84999061,
          "Timestamp": "2022-08-03T20:00:00Z"
        },
        {
          "Status": 69,
          "Value": 4.106658,
          "Timestamp": "2022-08-03T21:00:00Z"
        },
        {
          "Status": 0,
          "Value": 4.36332035,
          "Timestamp": "2022-08-03T22:00:00Z"
        },
        { "Status": 0, "Value": 4.619987, "Timestamp": "2022-08-03T23:00:00Z" },
        { "Status": 0, "Value": 4.876653, "Timestamp": "2022-08-04T00:00:00Z" },
        {
          "Status": 69,
          "Value": 5.13331652,
          "Timestamp": "2022-08-04T01:00:00Z"
        },
        {
          "Status": 69,
          "Value": 5.38998461,
          "Timestamp": "2022-08-04T02:00:00Z"
        },
        {
          "Status": 69,
          "Value": 5.646651,
          "Timestamp": "2022-08-04T03:00:00Z"
        },
        {
          "Status": 69,
          "Value": 5.903315,
          "Timestamp": "2022-08-04T04:00:00Z"
        },
        { "Status": 69, "Value": 0.0, "Timestamp": "2022-08-04T05:00:00Z" },
        {
          "Status": 69,
          "Value": 0.2566659,
          "Timestamp": "2022-08-04T06:00:00Z"
        },
        {
          "Status": 0,
          "Value": 0.5133322,
          "Timestamp": "2022-08-04T07:00:00Z"
        },
        {
          "Status": 69,
          "Value": 0.7699978,
          "Timestamp": "2022-08-04T08:00:00Z"
        },
        {
          "Status": 0,
          "Value": 1.0266639,
          "Timestamp": "2022-08-04T09:00:00Z"
        },
        {
          "Status": 0,
          "Value": 1.28332949,
          "Timestamp": "2022-08-04T10:00:00Z"
        },
        {
          "Status": 69,
          "Value": 1.53999627,
          "Timestamp": "2022-08-04T11:00:00Z"
        },
        {
          "Status": 69,
          "Value": 1.79666126,
          "Timestamp": "2022-08-04T12:00:00Z"
        },
        {
          "Status": 69,
          "Value": 2.053329,
          "Timestamp": "2022-08-04T13:00:00Z"
        },
        { "Status": 0, "Value": 2.309994, "Timestamp": "2022-08-04T14:00:00Z" },
        {
          "Status": 69,
          "Value": 2.5666585,
          "Timestamp": "2022-08-04T15:00:00Z"
        },
        {
          "Status": 69,
          "Value": 2.8233254,
          "Timestamp": "2022-08-04T16:00:00Z"
        },
        {
          "Status": 69,
          "Value": 3.07999229,
          "Timestamp": "2022-08-04T17:00:00Z"
        },
        {
          "Status": 69,
          "Value": 3.33665586,
          "Timestamp": "2022-08-04T18:00:00Z"
        },
        {
          "Status": 69,
          "Value": 3.59332323,
          "Timestamp": "2022-08-04T19:00:00Z"
        },
        { "Status": 69, "Value": 3.84999, "Timestamp": "2022-08-04T20:00:00Z" },
        {
          "Status": 0,
          "Value": 4.10665655,
          "Timestamp": "2022-08-04T21:00:00Z"
        },
        { "Status": 0, "Value": 4.363322, "Timestamp": "2022-08-04T22:00:00Z" },
        {
          "Status": 0,
          "Value": 4.61998367,
          "Timestamp": "2022-08-04T23:00:00Z"
        },
        {
          "Status": 69,
          "Value": 4.87665129,
          "Timestamp": "2022-08-05T00:00:00Z"
        },
        {
          "Status": 69,
          "Value": 5.13331747,
          "Timestamp": "2022-08-05T01:00:00Z"
        },
        {
          "Status": 69,
          "Value": 5.38998461,
          "Timestamp": "2022-08-05T02:00:00Z"
        },
        {
          "Status": 69,
          "Value": 5.646651,
          "Timestamp": "2022-08-05T03:00:00Z"
        },
        {
          "Status": 69,
          "Value": 5.90331745,
          "Timestamp": "2022-08-05T04:00:00Z"
        },
        { "Status": 69, "Value": 0.0, "Timestamp": "2022-08-05T05:00:00Z" },
        {
          "Status": 69,
          "Value": 0.256665826,
          "Timestamp": "2022-08-05T06:00:00Z"
        },
        {
          "Status": 69,
          "Value": 0.51333195,
          "Timestamp": "2022-08-05T07:00:00Z"
        },
        {
          "Status": 69,
          "Value": 0.7699979,
          "Timestamp": "2022-08-05T08:00:00Z"
        },
        {
          "Status": 0,
          "Value": 1.02666438,
          "Timestamp": "2022-08-05T09:00:00Z"
        },
        {
          "Status": 69,
          "Value": 1.28332949,
          "Timestamp": "2022-08-05T10:00:00Z"
        },
        {
          "Status": 69,
          "Value": 1.53999639,
          "Timestamp": "2022-08-05T11:00:00Z"
        },
        {
          "Status": 69,
          "Value": 1.79666126,
          "Timestamp": "2022-08-05T12:00:00Z"
        },
        {
          "Status": 0,
          "Value": 2.05332851,
          "Timestamp": "2022-08-05T13:00:00Z"
        },
        { "Status": 0, "Value": 2.309995, "Timestamp": "2022-08-05T14:00:00Z" },
        {
          "Status": 0,
          "Value": 2.5666585,
          "Timestamp": "2022-08-05T15:00:00Z"
        },
        {
          "Status": 0,
          "Value": 2.82332468,
          "Timestamp": "2022-08-05T16:00:00Z"
        },
        {
          "Status": 69,
          "Value": 3.07999063,
          "Timestamp": "2022-08-05T17:00:00Z"
        },
        {
          "Status": 69,
          "Value": 3.33665729,
          "Timestamp": "2022-08-05T18:00:00Z"
        },
        {
          "Status": 0,
          "Value": 3.59332323,
          "Timestamp": "2022-08-05T19:00:00Z"
        },
        {
          "Status": 69,
          "Value": 3.84999061,
          "Timestamp": "2022-08-05T20:00:00Z"
        },
        {
          "Status": 69,
          "Value": 4.10665751,
          "Timestamp": "2022-08-05T21:00:00Z"
        },
        {
          "Status": 69,
          "Value": 4.36332035,
          "Timestamp": "2022-08-05T22:00:00Z"
        },
        {
          "Status": 69,
          "Value": 4.619987,
          "Timestamp": "2022-08-05T23:00:00Z"
        },
        {
          "Status": 0,
          "Value": 4.87665224,
          "Timestamp": "2022-08-06T00:00:00Z"
        },
        {
          "Status": 69,
          "Value": 5.13331652,
          "Timestamp": "2022-08-06T01:00:00Z"
        },
        {
          "Status": 69,
          "Value": 5.38998461,
          "Timestamp": "2022-08-06T02:00:00Z"
        },
        { "Status": 0, "Value": 5.646649, "Timestamp": "2022-08-06T03:00:00Z" },
        {
          "Status": 69,
          "Value": 5.903315,
          "Timestamp": "2022-08-06T04:00:00Z"
        },
        { "Status": 69, "Value": 0.0, "Timestamp": "2022-08-06T05:00:00Z" },
        {
          "Status": 69,
          "Value": 0.256665915,
          "Timestamp": "2022-08-06T06:00:00Z"
        },
        {
          "Status": 69,
          "Value": 0.513332248,
          "Timestamp": "2022-08-06T07:00:00Z"
        },
        {
          "Status": 69,
          "Value": 0.769997954,
          "Timestamp": "2022-08-06T08:00:00Z"
        },
        { "Status": 0, "Value": 1.026664, "Timestamp": "2022-08-06T09:00:00Z" },
        {
          "Status": 69,
          "Value": 1.28332937,
          "Timestamp": "2022-08-06T10:00:00Z"
        },
        {
          "Status": 0,
          "Value": 1.53999639,
          "Timestamp": "2022-08-06T11:00:00Z"
        },
        {
          "Status": 0,
          "Value": 1.79666126,
          "Timestamp": "2022-08-06T12:00:00Z"
        },
        {
          "Status": 69,
          "Value": 2.05332875,
          "Timestamp": "2022-08-06T13:00:00Z"
        },
        { "Status": 0, "Value": 2.309994, "Timestamp": "2022-08-06T14:00:00Z" },
        {
          "Status": 0,
          "Value": 2.56665826,
          "Timestamp": "2022-08-06T15:00:00Z"
        },
        {
          "Status": 0,
          "Value": 2.8233254,
          "Timestamp": "2022-08-06T16:00:00Z"
        },
        {
          "Status": 0,
          "Value": 3.07999158,
          "Timestamp": "2022-08-06T17:00:00Z"
        },
        {
          "Status": 69,
          "Value": 3.33665562,
          "Timestamp": "2022-08-06T18:00:00Z"
        },
        { "Status": 0, "Value": 3.593323, "Timestamp": "2022-08-06T19:00:00Z" },
        {
          "Status": 0,
          "Value": 3.84999013,
          "Timestamp": "2022-08-06T20:00:00Z"
        },
        {
          "Status": 69,
          "Value": 4.106657,
          "Timestamp": "2022-08-06T21:00:00Z"
        },
        {
          "Status": 69,
          "Value": 4.36332226,
          "Timestamp": "2022-08-06T22:00:00Z"
        },
        {
          "Status": 69,
          "Value": 4.61998367,
          "Timestamp": "2022-08-06T23:00:00Z"
        },
        {
          "Status": 69,
          "Value": 4.876654,
          "Timestamp": "2022-08-07T00:00:00Z"
        },
        { "Status": 0, "Value": 5.133317, "Timestamp": "2022-08-07T01:00:00Z" },
        {
          "Status": 0,
          "Value": 5.38998461,
          "Timestamp": "2022-08-07T02:00:00Z"
        },
        {
          "Status": 69,
          "Value": 5.64665127,
          "Timestamp": "2022-08-07T03:00:00Z"
        },
        {
          "Status": 69,
          "Value": 5.903318,
          "Timestamp": "2022-08-07T04:00:00Z"
        },
        { "Status": 69, "Value": 0.0, "Timestamp": "2022-08-07T05:00:00Z" },
        {
          "Status": 0,
          "Value": 0.256665915,
          "Timestamp": "2022-08-07T06:00:00Z"
        },
        {
          "Status": 69,
          "Value": 0.513332069,
          "Timestamp": "2022-08-07T07:00:00Z"
        },
        {
          "Status": 0,
          "Value": 0.7699981,
          "Timestamp": "2022-08-07T08:00:00Z"
        },
        {
          "Status": 0,
          "Value": 1.0266645,
          "Timestamp": "2022-08-07T09:00:00Z"
        },
        {
          "Status": 69,
          "Value": 1.28332925,
          "Timestamp": "2022-08-07T10:00:00Z"
        },
        {
          "Status": 69,
          "Value": 1.53999591,
          "Timestamp": "2022-08-07T11:00:00Z"
        },
        {
          "Status": 69,
          "Value": 1.79666126,
          "Timestamp": "2022-08-07T12:00:00Z"
        },
        {
          "Status": 69,
          "Value": 2.05332851,
          "Timestamp": "2022-08-07T13:00:00Z"
        },
        {
          "Status": 69,
          "Value": 2.30999541,
          "Timestamp": "2022-08-07T14:00:00Z"
        },
        {
          "Status": 69,
          "Value": 2.56665921,
          "Timestamp": "2022-08-07T15:00:00Z"
        },
        {
          "Status": 0,
          "Value": 2.82332444,
          "Timestamp": "2022-08-07T16:00:00Z"
        },
        { "Status": 0, "Value": 3.079991, "Timestamp": "2022-08-07T17:00:00Z" },
        {
          "Status": 69,
          "Value": 3.33665657,
          "Timestamp": "2022-08-07T18:00:00Z"
        },
        { "Status": 0, "Value": 3.593323, "Timestamp": "2022-08-07T19:00:00Z" },
        {
          "Status": 69,
          "Value": 3.84999061,
          "Timestamp": "2022-08-07T20:00:00Z"
        },
        {
          "Status": 69,
          "Value": 4.1066556,
          "Timestamp": "2022-08-07T21:00:00Z"
        },
        {
          "Status": 0,
          "Value": 4.36332035,
          "Timestamp": "2022-08-07T22:00:00Z"
        },
        { "Status": 0, "Value": 4.619986, "Timestamp": "2022-08-07T23:00:00Z" },
        {
          "Status": 69,
          "Value": 4.876652,
          "Timestamp": "2022-08-08T00:00:00Z"
        },
        {
          "Status": 69,
          "Value": 5.133318,
          "Timestamp": "2022-08-08T01:00:00Z"
        },
        {
          "Status": 0,
          "Value": 5.38998461,
          "Timestamp": "2022-08-08T02:00:00Z"
        },
        {
          "Status": 0,
          "Value": 5.64665031,
          "Timestamp": "2022-08-08T03:00:00Z"
        },
        {
          "Status": 0,
          "Value": 5.9033165,
          "Timestamp": "2022-08-08T04:00:00Z"
        },
        { "Status": 0, "Value": 0.0, "Timestamp": "2022-08-08T05:00:00Z" },
        {
          "Status": 69,
          "Value": 0.256665975,
          "Timestamp": "2022-08-08T06:00:00Z"
        },
        {
          "Status": 69,
          "Value": 0.5133322,
          "Timestamp": "2022-08-08T07:00:00Z"
        },
        {
          "Status": 0,
          "Value": 0.769997656,
          "Timestamp": "2022-08-08T08:00:00Z"
        },
        {
          "Status": 0,
          "Value": 1.02666426,
          "Timestamp": "2022-08-08T09:00:00Z"
        },
        {
          "Status": 0,
          "Value": 1.28332937,
          "Timestamp": "2022-08-08T10:00:00Z"
        },
        {
          "Status": 69,
          "Value": 1.53999591,
          "Timestamp": "2022-08-08T11:00:00Z"
        },
        {
          "Status": 69,
          "Value": 1.79666126,
          "Timestamp": "2022-08-08T12:00:00Z"
        },
        {
          "Status": 0,
          "Value": 2.0533278,
          "Timestamp": "2022-08-08T13:00:00Z"
        },
        {
          "Status": 69,
          "Value": 2.309994,
          "Timestamp": "2022-08-08T14:00:00Z"
        },
        {
          "Status": 0,
          "Value": 2.56665826,
          "Timestamp": "2022-08-08T15:00:00Z"
        },
        {
          "Status": 69,
          "Value": 2.82332563,
          "Timestamp": "2022-08-08T16:00:00Z"
        },
        {
          "Status": 69,
          "Value": 3.07999086,
          "Timestamp": "2022-08-08T17:00:00Z"
        },
        {
          "Status": 0,
          "Value": 3.33665776,
          "Timestamp": "2022-08-08T18:00:00Z"
        },
        { "Status": 0, "Value": 3.593323, "Timestamp": "2022-08-08T19:00:00Z" },
        {
          "Status": 69,
          "Value": 3.84999037,
          "Timestamp": "2022-08-08T20:00:00Z"
        },
        {
          "Status": 0,
          "Value": 4.10665751,
          "Timestamp": "2022-08-08T21:00:00Z"
        },
        {
          "Status": 69,
          "Value": 4.363323,
          "Timestamp": "2022-08-08T22:00:00Z"
        },
        {
          "Status": 69,
          "Value": 4.619987,
          "Timestamp": "2022-08-08T23:00:00Z"
        },
        {
          "Status": 0,
          "Value": 4.87665367,
          "Timestamp": "2022-08-09T00:00:00Z"
        },
        {
          "Status": 0,
          "Value": 5.13331652,
          "Timestamp": "2022-08-09T01:00:00Z"
        },
        {
          "Status": 0,
          "Value": 5.38998461,
          "Timestamp": "2022-08-09T02:00:00Z"
        },
        {
          "Status": 69,
          "Value": 5.64664936,
          "Timestamp": "2022-08-09T03:00:00Z"
        },
        {
          "Status": 69,
          "Value": 5.903316,
          "Timestamp": "2022-08-09T04:00:00Z"
        },
        { "Status": 0, "Value": 0.0, "Timestamp": "2022-08-09T05:00:00Z" },
        {
          "Status": 69,
          "Value": 0.256665826,
          "Timestamp": "2022-08-09T06:00:00Z"
        },
        {
          "Status": 69,
          "Value": 0.5133322,
          "Timestamp": "2022-08-09T07:00:00Z"
        },
        {
          "Status": 69,
          "Value": 0.769997835,
          "Timestamp": "2022-08-09T08:00:00Z"
        },
        {
          "Status": 69,
          "Value": 1.02666438,
          "Timestamp": "2022-08-09T09:00:00Z"
        },
        {
          "Status": 0,
          "Value": 1.28332973,
          "Timestamp": "2022-08-09T10:00:00Z"
        },
        {
          "Status": 69,
          "Value": 1.53999591,
          "Timestamp": "2022-08-09T11:00:00Z"
        }
      ],
      "SensorID": 0,
      "PinID": null,
      "proposedSeriesMin": -0.29516589641571045,
      "proposedSeriesMax": 6.1984838247299194,
      "actualSeriesMin": 0.0,
      "actualSeriesMax": 5.903317928314209,
      "Statistics": {
        "max": 5.903317928314209,
        "min": 0.0,
        "mean": 2.9288045000540066,
        "numOfPoints": 219.0,
        "median": 2.8233253955841064,
        "range": 5.903317928314209,
        "distribution": [
          { "value": 1.03, "frequency": 4.5662100456621 },
          { "value": 1.28, "frequency": 4.5662100456621 },
          { "value": 1.54, "frequency": 4.5662100456621 },
          { "value": 0.0, "frequency": 4.10958904109589 },
          { "value": 0.26, "frequency": 4.10958904109589 },
          { "value": 0.51, "frequency": 4.10958904109589 },
          { "value": 0.77, "frequency": 4.10958904109589 },
          { "value": 1.8, "frequency": 4.10958904109589 },
          { "value": 2.05, "frequency": 4.10958904109589 },
          { "value": 2.31, "frequency": 4.10958904109589 },
          { "value": 2.57, "frequency": 4.10958904109589 },
          { "value": 2.82, "frequency": 4.10958904109589 },
          { "value": 3.08, "frequency": 4.10958904109589 },
          { "value": 3.34, "frequency": 4.10958904109589 },
          { "value": 3.59, "frequency": 4.10958904109589 },
          { "value": 3.85, "frequency": 4.10958904109589 },
          { "value": 4.11, "frequency": 4.10958904109589 },
          { "value": 4.36, "frequency": 4.10958904109589 },
          { "value": 4.62, "frequency": 4.10958904109589 },
          { "value": 4.88, "frequency": 4.10958904109589 },
          { "value": 5.13, "frequency": 4.10958904109589 },
          { "value": 5.39, "frequency": 4.10958904109589 },
          { "value": 5.65, "frequency": 4.10958904109589 },
          { "value": 5.9, "frequency": 4.10958904109589 },
          { "value": 0.01, "frequency": 0.0 },
          { "value": 0.02, "frequency": 0.0 },
          { "value": 0.03, "frequency": 0.0 },
          { "value": 0.04, "frequency": 0.0 },
          { "value": 0.05, "frequency": 0.0 },
          { "value": 0.060000000000000005, "frequency": 0.0 },
          { "value": 0.07, "frequency": 0.0 },
          { "value": 0.08, "frequency": 0.0 },
          { "value": 0.09, "frequency": 0.0 },
          { "value": 0.099999999999999992, "frequency": 0.0 },
          { "value": 0.10999999999999999, "frequency": 0.0 },
          { "value": 0.11999999999999998, "frequency": 0.0 },
          { "value": 0.12999999999999998, "frequency": 0.0 },
          { "value": 0.13999999999999999, "frequency": 0.0 },
          { "value": 0.15, "frequency": 0.0 },
          { "value": 0.16, "frequency": 0.0 },
          { "value": 0.17, "frequency": 0.0 },
          { "value": 0.18000000000000002, "frequency": 0.0 },
          { "value": 0.19000000000000003, "frequency": 0.0 },
          { "value": 0.20000000000000004, "frequency": 0.0 },
          { "value": 0.21000000000000005, "frequency": 0.0 },
          { "value": 0.22000000000000006, "frequency": 0.0 },
          { "value": 0.23000000000000007, "frequency": 0.0 },
          { "value": 0.24000000000000007, "frequency": 0.0 },
          { "value": 0.25000000000000006, "frequency": 0.0 },
          { "value": 0.26000000000000006, "frequency": 0.0 },
          { "value": 0.27000000000000007, "frequency": 0.0 },
          { "value": 0.28000000000000008, "frequency": 0.0 },
          { "value": 0.29000000000000009, "frequency": 0.0 },
          { "value": 0.3000000000000001, "frequency": 0.0 },
          { "value": 0.31000000000000011, "frequency": 0.0 },
          { "value": 0.32000000000000012, "frequency": 0.0 },
          { "value": 0.33000000000000013, "frequency": 0.0 },
          { "value": 0.34000000000000014, "frequency": 0.0 },
          { "value": 0.35000000000000014, "frequency": 0.0 },
          { "value": 0.36000000000000015, "frequency": 0.0 },
          { "value": 0.37000000000000016, "frequency": 0.0 },
          { "value": 0.38000000000000017, "frequency": 0.0 },
          { "value": 0.39000000000000018, "frequency": 0.0 },
          { "value": 0.40000000000000019, "frequency": 0.0 },
          { "value": 0.4100000000000002, "frequency": 0.0 },
          { "value": 0.42000000000000021, "frequency": 0.0 },
          { "value": 0.43000000000000022, "frequency": 0.0 },
          { "value": 0.44000000000000022, "frequency": 0.0 },
          { "value": 0.45000000000000023, "frequency": 0.0 },
          { "value": 0.46000000000000024, "frequency": 0.0 },
          { "value": 0.47000000000000025, "frequency": 0.0 },
          { "value": 0.48000000000000026, "frequency": 0.0 },
          { "value": 0.49000000000000027, "frequency": 0.0 },
          { "value": 0.50000000000000022, "frequency": 0.0 },
          { "value": 0.51000000000000023, "frequency": 0.0 },
          { "value": 0.52000000000000024, "frequency": 0.0 },
          { "value": 0.53000000000000025, "frequency": 0.0 },
          { "value": 0.54000000000000026, "frequency": 0.0 },
          { "value": 0.55000000000000027, "frequency": 0.0 },
          { "value": 0.56000000000000028, "frequency": 0.0 },
          { "value": 0.57000000000000028, "frequency": 0.0 },
          { "value": 0.58000000000000029, "frequency": 0.0 },
          { "value": 0.5900000000000003, "frequency": 0.0 },
          { "value": 0.60000000000000031, "frequency": 0.0 },
          { "value": 0.61000000000000032, "frequency": 0.0 },
          { "value": 0.62000000000000033, "frequency": 0.0 },
          { "value": 0.63000000000000034, "frequency": 0.0 },
          { "value": 0.64000000000000035, "frequency": 0.0 },
          { "value": 0.65000000000000036, "frequency": 0.0 },
          { "value": 0.66000000000000036, "frequency": 0.0 },
          { "value": 0.67000000000000037, "frequency": 0.0 },
          { "value": 0.68000000000000038, "frequency": 0.0 },
          { "value": 0.69000000000000039, "frequency": 0.0 },
          { "value": 0.7000000000000004, "frequency": 0.0 },
          { "value": 0.71000000000000041, "frequency": 0.0 },
          { "value": 0.72000000000000042, "frequency": 0.0 },
          { "value": 0.73000000000000043, "frequency": 0.0 },
          { "value": 0.74000000000000044, "frequency": 0.0 },
          { "value": 0.75000000000000044, "frequency": 0.0 },
          { "value": 0.76000000000000045, "frequency": 0.0 },
          { "value": 0.77000000000000046, "frequency": 0.0 },
          { "value": 0.78000000000000047, "frequency": 0.0 },
          { "value": 0.79000000000000048, "frequency": 0.0 },
          { "value": 0.80000000000000049, "frequency": 0.0 },
          { "value": 0.8100000000000005, "frequency": 0.0 },
          { "value": 0.82000000000000051, "frequency": 0.0 },
          { "value": 0.83000000000000052, "frequency": 0.0 },
          { "value": 0.84000000000000052, "frequency": 0.0 },
          { "value": 0.85000000000000053, "frequency": 0.0 },
          { "value": 0.86000000000000054, "frequency": 0.0 },
          { "value": 0.87000000000000055, "frequency": 0.0 },
          { "value": 0.88000000000000056, "frequency": 0.0 },
          { "value": 0.89000000000000057, "frequency": 0.0 },
          { "value": 0.90000000000000058, "frequency": 0.0 },
          { "value": 0.91000000000000059, "frequency": 0.0 },
          { "value": 0.9200000000000006, "frequency": 0.0 },
          { "value": 0.9300000000000006, "frequency": 0.0 },
          { "value": 0.94000000000000061, "frequency": 0.0 },
          { "value": 0.95000000000000062, "frequency": 0.0 },
          { "value": 0.96000000000000063, "frequency": 0.0 },
          { "value": 0.97000000000000064, "frequency": 0.0 },
          { "value": 0.98000000000000065, "frequency": 0.0 },
          { "value": 0.99000000000000066, "frequency": 0.0 },
          { "value": 1.0000000000000007, "frequency": 0.0 },
          { "value": 1.0100000000000007, "frequency": 0.0 },
          { "value": 1.0200000000000007, "frequency": 0.0 },
          { "value": 1.0300000000000007, "frequency": 0.0 },
          { "value": 1.0400000000000007, "frequency": 0.0 },
          { "value": 1.0500000000000007, "frequency": 0.0 },
          { "value": 1.0600000000000007, "frequency": 0.0 },
          { "value": 1.0700000000000007, "frequency": 0.0 },
          { "value": 1.0800000000000007, "frequency": 0.0 },
          { "value": 1.0900000000000008, "frequency": 0.0 },
          { "value": 1.1000000000000008, "frequency": 0.0 },
          { "value": 1.1100000000000008, "frequency": 0.0 },
          { "value": 1.1200000000000008, "frequency": 0.0 },
          { "value": 1.1300000000000008, "frequency": 0.0 },
          { "value": 1.1400000000000008, "frequency": 0.0 },
          { "value": 1.1500000000000008, "frequency": 0.0 },
          { "value": 1.1600000000000008, "frequency": 0.0 },
          { "value": 1.1700000000000008, "frequency": 0.0 },
          { "value": 1.1800000000000008, "frequency": 0.0 },
          { "value": 1.1900000000000008, "frequency": 0.0 },
          { "value": 1.2000000000000008, "frequency": 0.0 },
          { "value": 1.2100000000000009, "frequency": 0.0 },
          { "value": 1.2200000000000009, "frequency": 0.0 },
          { "value": 1.2300000000000009, "frequency": 0.0 },
          { "value": 1.2400000000000009, "frequency": 0.0 },
          { "value": 1.2500000000000009, "frequency": 0.0 },
          { "value": 1.2600000000000009, "frequency": 0.0 },
          { "value": 1.2700000000000009, "frequency": 0.0 },
          { "value": 1.2800000000000009, "frequency": 0.0 },
          { "value": 1.2900000000000009, "frequency": 0.0 },
          { "value": 1.3000000000000009, "frequency": 0.0 },
          { "value": 1.3100000000000009, "frequency": 0.0 },
          { "value": 1.320000000000001, "frequency": 0.0 },
          { "value": 1.330000000000001, "frequency": 0.0 },
          { "value": 1.340000000000001, "frequency": 0.0 },
          { "value": 1.350000000000001, "frequency": 0.0 },
          { "value": 1.360000000000001, "frequency": 0.0 },
          { "value": 1.370000000000001, "frequency": 0.0 },
          { "value": 1.380000000000001, "frequency": 0.0 },
          { "value": 1.390000000000001, "frequency": 0.0 },
          { "value": 1.400000000000001, "frequency": 0.0 },
          { "value": 1.410000000000001, "frequency": 0.0 },
          { "value": 1.420000000000001, "frequency": 0.0 },
          { "value": 1.4300000000000011, "frequency": 0.0 },
          { "value": 1.4400000000000011, "frequency": 0.0 },
          { "value": 1.4500000000000011, "frequency": 0.0 },
          { "value": 1.4600000000000011, "frequency": 0.0 },
          { "value": 1.4700000000000011, "frequency": 0.0 },
          { "value": 1.4800000000000011, "frequency": 0.0 },
          { "value": 1.4900000000000011, "frequency": 0.0 },
          { "value": 1.5000000000000011, "frequency": 0.0 },
          { "value": 1.5100000000000011, "frequency": 0.0 },
          { "value": 1.5200000000000011, "frequency": 0.0 },
          { "value": 1.5300000000000011, "frequency": 0.0 },
          { "value": 1.5400000000000012, "frequency": 0.0 },
          { "value": 1.5500000000000012, "frequency": 0.0 },
          { "value": 1.5600000000000012, "frequency": 0.0 },
          { "value": 1.5700000000000012, "frequency": 0.0 },
          { "value": 1.5800000000000012, "frequency": 0.0 },
          { "value": 1.5900000000000012, "frequency": 0.0 },
          { "value": 1.6000000000000012, "frequency": 0.0 },
          { "value": 1.6100000000000012, "frequency": 0.0 },
          { "value": 1.6200000000000012, "frequency": 0.0 },
          { "value": 1.6300000000000012, "frequency": 0.0 },
          { "value": 1.6400000000000012, "frequency": 0.0 },
          { "value": 1.6500000000000012, "frequency": 0.0 },
          { "value": 1.6600000000000013, "frequency": 0.0 },
          { "value": 1.6700000000000013, "frequency": 0.0 },
          { "value": 1.6800000000000013, "frequency": 0.0 },
          { "value": 1.6900000000000013, "frequency": 0.0 },
          { "value": 1.7000000000000013, "frequency": 0.0 },
          { "value": 1.7100000000000013, "frequency": 0.0 },
          { "value": 1.7200000000000013, "frequency": 0.0 },
          { "value": 1.7300000000000013, "frequency": 0.0 },
          { "value": 1.7400000000000013, "frequency": 0.0 },
          { "value": 1.7500000000000013, "frequency": 0.0 },
          { "value": 1.7600000000000013, "frequency": 0.0 },
          { "value": 1.7700000000000014, "frequency": 0.0 },
          { "value": 1.7800000000000014, "frequency": 0.0 },
          { "value": 1.7900000000000014, "frequency": 0.0 },
          { "value": 1.8000000000000014, "frequency": 0.0 },
          { "value": 1.8100000000000014, "frequency": 0.0 },
          { "value": 1.8200000000000014, "frequency": 0.0 },
          { "value": 1.8300000000000014, "frequency": 0.0 },
          { "value": 1.8400000000000014, "frequency": 0.0 },
          { "value": 1.8500000000000014, "frequency": 0.0 },
          { "value": 1.8600000000000014, "frequency": 0.0 },
          { "value": 1.8700000000000014, "frequency": 0.0 },
          { "value": 1.8800000000000015, "frequency": 0.0 },
          { "value": 1.8900000000000015, "frequency": 0.0 },
          { "value": 1.9000000000000015, "frequency": 0.0 },
          { "value": 1.9100000000000015, "frequency": 0.0 },
          { "value": 1.9200000000000015, "frequency": 0.0 },
          { "value": 1.9300000000000015, "frequency": 0.0 },
          { "value": 1.9400000000000015, "frequency": 0.0 },
          { "value": 1.9500000000000015, "frequency": 0.0 },
          { "value": 1.9600000000000015, "frequency": 0.0 },
          { "value": 1.9700000000000015, "frequency": 0.0 },
          { "value": 1.9800000000000015, "frequency": 0.0 },
          { "value": 1.9900000000000016, "frequency": 0.0 },
          { "value": 2.0000000000000013, "frequency": 0.0 },
          { "value": 2.0100000000000011, "frequency": 0.0 },
          { "value": 2.0200000000000009, "frequency": 0.0 },
          { "value": 2.0300000000000007, "frequency": 0.0 },
          { "value": 2.0400000000000005, "frequency": 0.0 },
          { "value": 2.0500000000000003, "frequency": 0.0 },
          { "value": 2.06, "frequency": 0.0 },
          { "value": 2.07, "frequency": 0.0 },
          { "value": 2.0799999999999996, "frequency": 0.0 },
          { "value": 2.0899999999999994, "frequency": 0.0 },
          { "value": 2.0999999999999992, "frequency": 0.0 },
          { "value": 2.109999999999999, "frequency": 0.0 },
          { "value": 2.1199999999999988, "frequency": 0.0 },
          { "value": 2.1299999999999986, "frequency": 0.0 },
          { "value": 2.1399999999999983, "frequency": 0.0 },
          { "value": 2.1499999999999981, "frequency": 0.0 },
          { "value": 2.1599999999999979, "frequency": 0.0 },
          { "value": 2.1699999999999977, "frequency": 0.0 },
          { "value": 2.1799999999999975, "frequency": 0.0 },
          { "value": 2.1899999999999973, "frequency": 0.0 },
          { "value": 2.1999999999999971, "frequency": 0.0 },
          { "value": 2.2099999999999969, "frequency": 0.0 },
          { "value": 2.2199999999999966, "frequency": 0.0 },
          { "value": 2.2299999999999964, "frequency": 0.0 },
          { "value": 2.2399999999999962, "frequency": 0.0 },
          { "value": 2.249999999999996, "frequency": 0.0 },
          { "value": 2.2599999999999958, "frequency": 0.0 },
          { "value": 2.2699999999999956, "frequency": 0.0 },
          { "value": 2.2799999999999954, "frequency": 0.0 },
          { "value": 2.2899999999999952, "frequency": 0.0 },
          { "value": 2.2999999999999949, "frequency": 0.0 },
          { "value": 2.3099999999999947, "frequency": 0.0 },
          { "value": 2.3199999999999945, "frequency": 0.0 },
          { "value": 2.3299999999999943, "frequency": 0.0 },
          { "value": 2.3399999999999941, "frequency": 0.0 },
          { "value": 2.3499999999999939, "frequency": 0.0 },
          { "value": 2.3599999999999937, "frequency": 0.0 },
          { "value": 2.3699999999999934, "frequency": 0.0 },
          { "value": 2.3799999999999932, "frequency": 0.0 },
          { "value": 2.389999999999993, "frequency": 0.0 },
          { "value": 2.3999999999999928, "frequency": 0.0 },
          { "value": 2.4099999999999926, "frequency": 0.0 },
          { "value": 2.4199999999999924, "frequency": 0.0 },
          { "value": 2.4299999999999922, "frequency": 0.0 },
          { "value": 2.439999999999992, "frequency": 0.0 },
          { "value": 2.4499999999999917, "frequency": 0.0 },
          { "value": 2.4599999999999915, "frequency": 0.0 },
          { "value": 2.4699999999999913, "frequency": 0.0 },
          { "value": 2.4799999999999911, "frequency": 0.0 },
          { "value": 2.4899999999999909, "frequency": 0.0 },
          { "value": 2.4999999999999907, "frequency": 0.0 },
          { "value": 2.5099999999999905, "frequency": 0.0 },
          { "value": 2.5199999999999902, "frequency": 0.0 },
          { "value": 2.52999999999999, "frequency": 0.0 },
          { "value": 2.53999999999999, "frequency": 0.0 },
          { "value": 2.5499999999999896, "frequency": 0.0 },
          { "value": 2.5599999999999894, "frequency": 0.0 },
          { "value": 2.5699999999999892, "frequency": 0.0 },
          { "value": 2.579999999999989, "frequency": 0.0 },
          { "value": 2.5899999999999888, "frequency": 0.0 },
          { "value": 2.5999999999999885, "frequency": 0.0 },
          { "value": 2.6099999999999883, "frequency": 0.0 },
          { "value": 2.6199999999999881, "frequency": 0.0 },
          { "value": 2.6299999999999879, "frequency": 0.0 },
          { "value": 2.6399999999999877, "frequency": 0.0 },
          { "value": 2.6499999999999875, "frequency": 0.0 },
          { "value": 2.6599999999999873, "frequency": 0.0 },
          { "value": 2.6699999999999871, "frequency": 0.0 },
          { "value": 2.6799999999999868, "frequency": 0.0 },
          { "value": 2.6899999999999866, "frequency": 0.0 },
          { "value": 2.6999999999999864, "frequency": 0.0 },
          { "value": 2.7099999999999862, "frequency": 0.0 },
          { "value": 2.719999999999986, "frequency": 0.0 },
          { "value": 2.7299999999999858, "frequency": 0.0 },
          { "value": 2.7399999999999856, "frequency": 0.0 },
          { "value": 2.7499999999999853, "frequency": 0.0 },
          { "value": 2.7599999999999851, "frequency": 0.0 },
          { "value": 2.7699999999999849, "frequency": 0.0 },
          { "value": 2.7799999999999847, "frequency": 0.0 },
          { "value": 2.7899999999999845, "frequency": 0.0 },
          { "value": 2.7999999999999843, "frequency": 0.0 },
          { "value": 2.8099999999999841, "frequency": 0.0 },
          { "value": 2.8199999999999839, "frequency": 0.0 },
          { "value": 2.8299999999999836, "frequency": 0.0 },
          { "value": 2.8399999999999834, "frequency": 0.0 },
          { "value": 2.8499999999999832, "frequency": 0.0 },
          { "value": 2.859999999999983, "frequency": 0.0 },
          { "value": 2.8699999999999828, "frequency": 0.0 },
          { "value": 2.8799999999999826, "frequency": 0.0 },
          { "value": 2.8899999999999824, "frequency": 0.0 },
          { "value": 2.8999999999999821, "frequency": 0.0 },
          { "value": 2.9099999999999819, "frequency": 0.0 },
          { "value": 2.9199999999999817, "frequency": 0.0 },
          { "value": 2.9299999999999815, "frequency": 0.0 },
          { "value": 2.9399999999999813, "frequency": 0.0 },
          { "value": 2.9499999999999811, "frequency": 0.0 },
          { "value": 2.9599999999999809, "frequency": 0.0 },
          { "value": 2.9699999999999807, "frequency": 0.0 },
          { "value": 2.9799999999999804, "frequency": 0.0 },
          { "value": 2.9899999999999802, "frequency": 0.0 },
          { "value": 2.99999999999998, "frequency": 0.0 },
          { "value": 3.00999999999998, "frequency": 0.0 },
          { "value": 3.0199999999999796, "frequency": 0.0 },
          { "value": 3.0299999999999794, "frequency": 0.0 },
          { "value": 3.0399999999999792, "frequency": 0.0 },
          { "value": 3.049999999999979, "frequency": 0.0 },
          { "value": 3.0599999999999787, "frequency": 0.0 },
          { "value": 3.0699999999999785, "frequency": 0.0 },
          { "value": 3.0799999999999783, "frequency": 0.0 },
          { "value": 3.0899999999999781, "frequency": 0.0 },
          { "value": 3.0999999999999779, "frequency": 0.0 },
          { "value": 3.1099999999999777, "frequency": 0.0 },
          { "value": 3.1199999999999775, "frequency": 0.0 },
          { "value": 3.1299999999999772, "frequency": 0.0 },
          { "value": 3.139999999999977, "frequency": 0.0 },
          { "value": 3.1499999999999768, "frequency": 0.0 },
          { "value": 3.1599999999999766, "frequency": 0.0 },
          { "value": 3.1699999999999764, "frequency": 0.0 },
          { "value": 3.1799999999999762, "frequency": 0.0 },
          { "value": 3.189999999999976, "frequency": 0.0 },
          { "value": 3.1999999999999758, "frequency": 0.0 },
          { "value": 3.2099999999999755, "frequency": 0.0 },
          { "value": 3.2199999999999753, "frequency": 0.0 },
          { "value": 3.2299999999999751, "frequency": 0.0 },
          { "value": 3.2399999999999749, "frequency": 0.0 },
          { "value": 3.2499999999999747, "frequency": 0.0 },
          { "value": 3.2599999999999745, "frequency": 0.0 },
          { "value": 3.2699999999999743, "frequency": 0.0 },
          { "value": 3.279999999999974, "frequency": 0.0 },
          { "value": 3.2899999999999738, "frequency": 0.0 },
          { "value": 3.2999999999999736, "frequency": 0.0 },
          { "value": 3.3099999999999734, "frequency": 0.0 },
          { "value": 3.3199999999999732, "frequency": 0.0 },
          { "value": 3.329999999999973, "frequency": 0.0 },
          { "value": 3.3399999999999728, "frequency": 0.0 },
          { "value": 3.3499999999999726, "frequency": 0.0 },
          { "value": 3.3599999999999723, "frequency": 0.0 },
          { "value": 3.3699999999999721, "frequency": 0.0 },
          { "value": 3.3799999999999719, "frequency": 0.0 },
          { "value": 3.3899999999999717, "frequency": 0.0 },
          { "value": 3.3999999999999715, "frequency": 0.0 },
          { "value": 3.4099999999999713, "frequency": 0.0 },
          { "value": 3.4199999999999711, "frequency": 0.0 },
          { "value": 3.4299999999999708, "frequency": 0.0 },
          { "value": 3.4399999999999706, "frequency": 0.0 },
          { "value": 3.4499999999999704, "frequency": 0.0 },
          { "value": 3.45999999999997, "frequency": 0.0 },
          { "value": 3.46999999999997, "frequency": 0.0 },
          { "value": 3.47999999999997, "frequency": 0.0 },
          { "value": 3.4899999999999696, "frequency": 0.0 },
          { "value": 3.4999999999999694, "frequency": 0.0 },
          { "value": 3.5099999999999691, "frequency": 0.0 },
          { "value": 3.5199999999999689, "frequency": 0.0 },
          { "value": 3.5299999999999687, "frequency": 0.0 },
          { "value": 3.5399999999999685, "frequency": 0.0 },
          { "value": 3.5499999999999683, "frequency": 0.0 },
          { "value": 3.5599999999999681, "frequency": 0.0 },
          { "value": 3.5699999999999679, "frequency": 0.0 },
          { "value": 3.5799999999999677, "frequency": 0.0 },
          { "value": 3.5899999999999674, "frequency": 0.0 },
          { "value": 3.5999999999999672, "frequency": 0.0 },
          { "value": 3.609999999999967, "frequency": 0.0 },
          { "value": 3.6199999999999668, "frequency": 0.0 },
          { "value": 3.6299999999999666, "frequency": 0.0 },
          { "value": 3.6399999999999664, "frequency": 0.0 },
          { "value": 3.6499999999999662, "frequency": 0.0 },
          { "value": 3.6599999999999659, "frequency": 0.0 },
          { "value": 3.6699999999999657, "frequency": 0.0 },
          { "value": 3.6799999999999655, "frequency": 0.0 },
          { "value": 3.6899999999999653, "frequency": 0.0 },
          { "value": 3.6999999999999651, "frequency": 0.0 },
          { "value": 3.7099999999999649, "frequency": 0.0 },
          { "value": 3.7199999999999647, "frequency": 0.0 },
          { "value": 3.7299999999999645, "frequency": 0.0 },
          { "value": 3.7399999999999642, "frequency": 0.0 },
          { "value": 3.749999999999964, "frequency": 0.0 },
          { "value": 3.7599999999999638, "frequency": 0.0 },
          { "value": 3.7699999999999636, "frequency": 0.0 },
          { "value": 3.7799999999999634, "frequency": 0.0 },
          { "value": 3.7899999999999632, "frequency": 0.0 },
          { "value": 3.799999999999963, "frequency": 0.0 },
          { "value": 3.8099999999999627, "frequency": 0.0 },
          { "value": 3.8199999999999625, "frequency": 0.0 },
          { "value": 3.8299999999999623, "frequency": 0.0 },
          { "value": 3.8399999999999621, "frequency": 0.0 },
          { "value": 3.8499999999999619, "frequency": 0.0 },
          { "value": 3.8599999999999617, "frequency": 0.0 },
          { "value": 3.8699999999999615, "frequency": 0.0 },
          { "value": 3.8799999999999613, "frequency": 0.0 },
          { "value": 3.889999999999961, "frequency": 0.0 },
          { "value": 3.8999999999999608, "frequency": 0.0 },
          { "value": 3.9099999999999606, "frequency": 0.0 },
          { "value": 3.9199999999999604, "frequency": 0.0 },
          { "value": 3.92999999999996, "frequency": 0.0 },
          { "value": 3.93999999999996, "frequency": 0.0 },
          { "value": 3.9499999999999598, "frequency": 0.0 },
          { "value": 3.9599999999999596, "frequency": 0.0 },
          { "value": 3.9699999999999593, "frequency": 0.0 },
          { "value": 3.9799999999999591, "frequency": 0.0 },
          { "value": 3.9899999999999589, "frequency": 0.0 },
          { "value": 3.9999999999999587, "frequency": 0.0 },
          { "value": 4.0099999999999589, "frequency": 0.0 },
          { "value": 4.0199999999999587, "frequency": 0.0 },
          { "value": 4.0299999999999585, "frequency": 0.0 },
          { "value": 4.0399999999999583, "frequency": 0.0 },
          { "value": 4.0499999999999581, "frequency": 0.0 },
          { "value": 4.0599999999999579, "frequency": 0.0 },
          { "value": 4.0699999999999577, "frequency": 0.0 },
          { "value": 4.0799999999999574, "frequency": 0.0 },
          { "value": 4.0899999999999572, "frequency": 0.0 },
          { "value": 4.099999999999957, "frequency": 0.0 },
          { "value": 4.1099999999999568, "frequency": 0.0 },
          { "value": 4.1199999999999566, "frequency": 0.0 },
          { "value": 4.1299999999999564, "frequency": 0.0 },
          { "value": 4.1399999999999562, "frequency": 0.0 },
          { "value": 4.1499999999999559, "frequency": 0.0 },
          { "value": 4.1599999999999557, "frequency": 0.0 },
          { "value": 4.1699999999999555, "frequency": 0.0 },
          { "value": 4.1799999999999553, "frequency": 0.0 },
          { "value": 4.1899999999999551, "frequency": 0.0 },
          { "value": 4.1999999999999549, "frequency": 0.0 },
          { "value": 4.2099999999999547, "frequency": 0.0 },
          { "value": 4.2199999999999545, "frequency": 0.0 },
          { "value": 4.2299999999999542, "frequency": 0.0 },
          { "value": 4.239999999999954, "frequency": 0.0 },
          { "value": 4.2499999999999538, "frequency": 0.0 },
          { "value": 4.2599999999999536, "frequency": 0.0 },
          { "value": 4.2699999999999534, "frequency": 0.0 },
          { "value": 4.2799999999999532, "frequency": 0.0 },
          { "value": 4.289999999999953, "frequency": 0.0 },
          { "value": 4.2999999999999527, "frequency": 0.0 },
          { "value": 4.3099999999999525, "frequency": 0.0 },
          { "value": 4.3199999999999523, "frequency": 0.0 },
          { "value": 4.3299999999999521, "frequency": 0.0 },
          { "value": 4.3399999999999519, "frequency": 0.0 },
          { "value": 4.3499999999999517, "frequency": 0.0 },
          { "value": 4.3599999999999515, "frequency": 0.0 },
          { "value": 4.3699999999999513, "frequency": 0.0 },
          { "value": 4.379999999999951, "frequency": 0.0 },
          { "value": 4.3899999999999508, "frequency": 0.0 },
          { "value": 4.3999999999999506, "frequency": 0.0 },
          { "value": 4.40999999999995, "frequency": 0.0 },
          { "value": 4.41999999999995, "frequency": 0.0 },
          { "value": 4.42999999999995, "frequency": 0.0 },
          { "value": 4.43999999999995, "frequency": 0.0 },
          { "value": 4.4499999999999496, "frequency": 0.0 },
          { "value": 4.4599999999999493, "frequency": 0.0 },
          { "value": 4.4699999999999491, "frequency": 0.0 },
          { "value": 4.4799999999999489, "frequency": 0.0 },
          { "value": 4.4899999999999487, "frequency": 0.0 },
          { "value": 4.4999999999999485, "frequency": 0.0 },
          { "value": 4.5099999999999483, "frequency": 0.0 },
          { "value": 4.5199999999999481, "frequency": 0.0 },
          { "value": 4.5299999999999478, "frequency": 0.0 },
          { "value": 4.5399999999999476, "frequency": 0.0 },
          { "value": 4.5499999999999474, "frequency": 0.0 },
          { "value": 4.5599999999999472, "frequency": 0.0 },
          { "value": 4.569999999999947, "frequency": 0.0 },
          { "value": 4.5799999999999468, "frequency": 0.0 },
          { "value": 4.5899999999999466, "frequency": 0.0 },
          { "value": 4.5999999999999464, "frequency": 0.0 },
          { "value": 4.6099999999999461, "frequency": 0.0 },
          { "value": 4.6199999999999459, "frequency": 0.0 },
          { "value": 4.6299999999999457, "frequency": 0.0 },
          { "value": 4.6399999999999455, "frequency": 0.0 },
          { "value": 4.6499999999999453, "frequency": 0.0 },
          { "value": 4.6599999999999451, "frequency": 0.0 },
          { "value": 4.6699999999999449, "frequency": 0.0 },
          { "value": 4.6799999999999446, "frequency": 0.0 },
          { "value": 4.6899999999999444, "frequency": 0.0 },
          { "value": 4.6999999999999442, "frequency": 0.0 },
          { "value": 4.709999999999944, "frequency": 0.0 },
          { "value": 4.7199999999999438, "frequency": 0.0 },
          { "value": 4.7299999999999436, "frequency": 0.0 },
          { "value": 4.7399999999999434, "frequency": 0.0 },
          { "value": 4.7499999999999432, "frequency": 0.0 },
          { "value": 4.7599999999999429, "frequency": 0.0 },
          { "value": 4.7699999999999427, "frequency": 0.0 },
          { "value": 4.7799999999999425, "frequency": 0.0 },
          { "value": 4.7899999999999423, "frequency": 0.0 },
          { "value": 4.7999999999999421, "frequency": 0.0 },
          { "value": 4.8099999999999419, "frequency": 0.0 },
          { "value": 4.8199999999999417, "frequency": 0.0 },
          { "value": 4.8299999999999415, "frequency": 0.0 },
          { "value": 4.8399999999999412, "frequency": 0.0 },
          { "value": 4.849999999999941, "frequency": 0.0 },
          { "value": 4.8599999999999408, "frequency": 0.0 },
          { "value": 4.8699999999999406, "frequency": 0.0 },
          { "value": 4.87999999999994, "frequency": 0.0 },
          { "value": 4.88999999999994, "frequency": 0.0 },
          { "value": 4.89999999999994, "frequency": 0.0 },
          { "value": 4.90999999999994, "frequency": 0.0 },
          { "value": 4.9199999999999395, "frequency": 0.0 },
          { "value": 4.9299999999999393, "frequency": 0.0 },
          { "value": 4.9399999999999391, "frequency": 0.0 },
          { "value": 4.9499999999999389, "frequency": 0.0 },
          { "value": 4.9599999999999387, "frequency": 0.0 },
          { "value": 4.9699999999999385, "frequency": 0.0 },
          { "value": 4.9799999999999383, "frequency": 0.0 },
          { "value": 4.989999999999938, "frequency": 0.0 },
          { "value": 4.9999999999999378, "frequency": 0.0 },
          { "value": 5.0099999999999376, "frequency": 0.0 },
          { "value": 5.0199999999999374, "frequency": 0.0 },
          { "value": 5.0299999999999372, "frequency": 0.0 },
          { "value": 5.039999999999937, "frequency": 0.0 },
          { "value": 5.0499999999999368, "frequency": 0.0 },
          { "value": 5.0599999999999365, "frequency": 0.0 },
          { "value": 5.0699999999999363, "frequency": 0.0 },
          { "value": 5.0799999999999361, "frequency": 0.0 },
          { "value": 5.0899999999999359, "frequency": 0.0 },
          { "value": 5.0999999999999357, "frequency": 0.0 },
          { "value": 5.1099999999999355, "frequency": 0.0 },
          { "value": 5.1199999999999353, "frequency": 0.0 },
          { "value": 5.1299999999999351, "frequency": 0.0 },
          { "value": 5.1399999999999348, "frequency": 0.0 },
          { "value": 5.1499999999999346, "frequency": 0.0 },
          { "value": 5.1599999999999344, "frequency": 0.0 },
          { "value": 5.1699999999999342, "frequency": 0.0 },
          { "value": 5.179999999999934, "frequency": 0.0 },
          { "value": 5.1899999999999338, "frequency": 0.0 },
          { "value": 5.1999999999999336, "frequency": 0.0 },
          { "value": 5.2099999999999334, "frequency": 0.0 },
          { "value": 5.2199999999999331, "frequency": 0.0 },
          { "value": 5.2299999999999329, "frequency": 0.0 },
          { "value": 5.2399999999999327, "frequency": 0.0 },
          { "value": 5.2499999999999325, "frequency": 0.0 },
          { "value": 5.2599999999999323, "frequency": 0.0 },
          { "value": 5.2699999999999321, "frequency": 0.0 },
          { "value": 5.2799999999999319, "frequency": 0.0 },
          { "value": 5.2899999999999316, "frequency": 0.0 },
          { "value": 5.2999999999999314, "frequency": 0.0 },
          { "value": 5.3099999999999312, "frequency": 0.0 },
          { "value": 5.319999999999931, "frequency": 0.0 },
          { "value": 5.3299999999999308, "frequency": 0.0 },
          { "value": 5.3399999999999306, "frequency": 0.0 },
          { "value": 5.34999999999993, "frequency": 0.0 },
          { "value": 5.35999999999993, "frequency": 0.0 },
          { "value": 5.36999999999993, "frequency": 0.0 },
          { "value": 5.37999999999993, "frequency": 0.0 },
          { "value": 5.3899999999999295, "frequency": 0.0 },
          { "value": 5.3999999999999293, "frequency": 0.0 },
          { "value": 5.4099999999999291, "frequency": 0.0 },
          { "value": 5.4199999999999289, "frequency": 0.0 },
          { "value": 5.4299999999999287, "frequency": 0.0 },
          { "value": 5.4399999999999284, "frequency": 0.0 },
          { "value": 5.4499999999999282, "frequency": 0.0 },
          { "value": 5.459999999999928, "frequency": 0.0 },
          { "value": 5.4699999999999278, "frequency": 0.0 },
          { "value": 5.4799999999999276, "frequency": 0.0 },
          { "value": 5.4899999999999274, "frequency": 0.0 },
          { "value": 5.4999999999999272, "frequency": 0.0 },
          { "value": 5.509999999999927, "frequency": 0.0 },
          { "value": 5.5199999999999267, "frequency": 0.0 },
          { "value": 5.5299999999999265, "frequency": 0.0 },
          { "value": 5.5399999999999263, "frequency": 0.0 },
          { "value": 5.5499999999999261, "frequency": 0.0 },
          { "value": 5.5599999999999259, "frequency": 0.0 },
          { "value": 5.5699999999999257, "frequency": 0.0 },
          { "value": 5.5799999999999255, "frequency": 0.0 },
          { "value": 5.5899999999999253, "frequency": 0.0 },
          { "value": 5.599999999999925, "frequency": 0.0 },
          { "value": 5.6099999999999248, "frequency": 0.0 },
          { "value": 5.6199999999999246, "frequency": 0.0 },
          { "value": 5.6299999999999244, "frequency": 0.0 },
          { "value": 5.6399999999999242, "frequency": 0.0 },
          { "value": 5.649999999999924, "frequency": 0.0 },
          { "value": 5.6599999999999238, "frequency": 0.0 },
          { "value": 5.6699999999999235, "frequency": 0.0 },
          { "value": 5.6799999999999233, "frequency": 0.0 },
          { "value": 5.6899999999999231, "frequency": 0.0 },
          { "value": 5.6999999999999229, "frequency": 0.0 },
          { "value": 5.7099999999999227, "frequency": 0.0 },
          { "value": 5.7199999999999225, "frequency": 0.0 },
          { "value": 5.7299999999999223, "frequency": 0.0 },
          { "value": 5.7399999999999221, "frequency": 0.0 },
          { "value": 5.7499999999999218, "frequency": 0.0 },
          { "value": 5.7599999999999216, "frequency": 0.0 },
          { "value": 5.7699999999999214, "frequency": 0.0 },
          { "value": 5.7799999999999212, "frequency": 0.0 },
          { "value": 5.789999999999921, "frequency": 0.0 },
          { "value": 5.7999999999999208, "frequency": 0.0 },
          { "value": 5.8099999999999206, "frequency": 0.0 },
          { "value": 5.81999999999992, "frequency": 0.0 },
          { "value": 5.82999999999992, "frequency": 0.0 },
          { "value": 5.83999999999992, "frequency": 0.0 },
          { "value": 5.84999999999992, "frequency": 0.0 },
          { "value": 5.8599999999999195, "frequency": 0.0 },
          { "value": 5.8699999999999193, "frequency": 0.0 },
          { "value": 5.8799999999999191, "frequency": 0.0 },
          { "value": 5.8899999999999189, "frequency": 0.0 },
          { "value": 5.8999999999999186, "frequency": 0.0 }
        ],
        "generalDistribution": [
          { "value": 5.9, "frequency": 4.10958904109589 },
          { "value": 5.6000000000000005, "frequency": 4.10958904109589 },
          { "value": 5.4, "frequency": 4.10958904109589 },
          { "value": 5.1000000000000005, "frequency": 4.10958904109589 },
          { "value": 4.9, "frequency": 4.10958904109589 },
          { "value": 4.6000000000000005, "frequency": 4.10958904109589 },
          { "value": 4.4, "frequency": 4.10958904109589 },
          { "value": 4.1000000000000005, "frequency": 4.10958904109589 },
          { "value": 3.8000000000000003, "frequency": 4.10958904109589 },
          { "value": 3.6, "frequency": 4.10958904109589 },
          { "value": 3.3000000000000003, "frequency": 4.10958904109589 },
          { "value": 3.1, "frequency": 4.10958904109589 },
          { "value": 2.8000000000000003, "frequency": 4.10958904109589 },
          { "value": 2.6, "frequency": 4.10958904109589 },
          { "value": 2.3000000000000003, "frequency": 4.10958904109589 },
          { "value": 2.1, "frequency": 4.10958904109589 },
          { "value": 1.8, "frequency": 4.10958904109589 },
          { "value": 1.5, "frequency": 4.5662100456621 },
          { "value": 1.3, "frequency": 4.5662100456621 },
          { "value": 1.0, "frequency": 4.5662100456621 },
          { "value": 0.8, "frequency": 4.10958904109589 },
          { "value": 0.5, "frequency": 4.10958904109589 },
          { "value": 0.30000000000000004, "frequency": 4.10958904109589 },
          { "value": 0.0, "frequency": 4.10958904109589 }
        ],
        "buckets": [
          { "value": 0.29516589641571045, "frequency": 18.0 },
          { "value": 0.88549768924713135, "frequency": 19.0 },
          { "value": 1.4758294820785523, "frequency": 20.0 },
          { "value": 2.0661612749099731, "frequency": 27.0 },
          { "value": 2.656493067741394, "frequency": 18.0 },
          { "value": 3.2468248605728149, "frequency": 18.0 },
          { "value": 3.8371566534042358, "frequency": 27.0 },
          { "value": 4.4274884462356567, "frequency": 18.0 },
          { "value": 5.0178202390670776, "frequency": 18.0 },
          { "value": 5.6081520318984985, "frequency": 25.0 }
        ],
        "stanDev": 1.7793390408020782,
        "upperQuartile": 4.3633217811584473,
        "middleQuartile": 2.8233253955841064,
        "lowerQuartile": 1.2833296060562134,
        "percentBands": [
          [1.03, 1.28, 1.54],
          [0.0, 0.26, 0.51],
          [0.77, 1.8, 2.05],
          [2.31, 2.57, 2.82],
          [3.08, 3.34, 3.59]
        ],
        "first": 1.0266638994216919,
        "last": 1.5399959087371826
      }
    }
  ],
  "Annotations": [],
  "Bands": null,
  "Pins": []
}
