[
  { "Name": "UI/TaskCenter/Alerts", "Value": 1 },
  { "Name": "UI/TaskCenter/IssuesManagement", "Value": 3 },
  { "Name": "UI/TaskCenter/Dashboard", "Value": 3 },
  { "Name": "UI/TaskCenter/DataExplorer", "Value": 1 },
  { "Name": "UI/Utility/OpModeConfig", "Value": 1 },
  { "Name": "UI/Utility/AssetConfig", "Value": 1 },
  { "Name": "UI/Utility/TagConfig", "Value": 1 },
  { "Name": "UI/Utility/PinConfig", "Value": 1 },
  { "Name": "UI/Utility/ModelConfig", "Value": 1 },
  { "Name": "UI/Feature/Alpha", "Value": 1 }
]
