{
  "RowNumber": 0,
  "ModelID": 248990,
  "ModelExtID": "4986cce4-ee74-4b58-9ef7-45984ac5bd71",
  "Active": true,
  "Built": false,
  "TagName": "tag0650",
  "TagDesc": "tag0650 model 130 output",
  "ModelName": "Scale Test Model 130",
  "ModelTypeID": 6,
  "ModelTypeAbbrev": "Moving Average",
  "Score": null,
  "EngUnits": "n/a",
  "AssetID": 4518277,
  "AssetGUID": "5868172E-2F87-4D80-A5BD-960137D0A3CA",
  "AssetDesc": "tags 0601 - 0700",
  "AssetAbbrev": "tags 0601 - 0700",
  "UnitID": 4517733,
  "UnitAbbrev": "Live MD Test Unit",
  "PrioritizedOpMode": "Steady State",
  "MAELower": null,
  "MAEUpper": null,
  "ActionDiagnose": false,
  "ActionWatch": false,
  "ActionWatchOverride": false,
  "ActionModelMaintenance": true,
  "HasOpenIssue": true,
  "OpenIssues": 1,
  "AlertStatusType": "AnomalyFrequency",
  "AlertTypes": [
    {
      "AlertStatusTypeID": 8,
      "AlertStatusTypeAbbrev": "FRQ",
      "AlertStatusTypeDesc": "Anomaly Frequency",
      "AlertStatusPriorityTypeID": 2,
      "AlertStatusPriorityType": {
        "AlertStatusPriorityTypeID": 2,
        "AlertStatusPriorityTypeAbbrev": "Low",
        "AlertStatusPriorityTypeDesc": "Low",
        "DisplayOrder": 2
      }
    }
  ],
  "AlertPriority": "Low",
  "AlertPrioritySeverity": 2,
  "PercentOutOfBounds": 99999.0,
  "Actual": 6.0149049758911133,
  "Expected": 14.133701324462891,
  "AddedToAlerts": "2022-08-19T12:12:00Z",
  "Alert": true,
  "Alerts": null,
  "UpperLimit": 14.133701324462891,
  "UpperSeverity": null,
  "LowerLimit": 14.133701324462891,
  "LowerSeverity": 2,
  "HiHiAlert": false,
  "HiHiAlertSinceTime": null,
  "LowLowAlert": false,
  "LowLowAlertSinceTime": null,
  "AreaFastResponseAlert": false,
  "AreaFastResponseAlertSinceTime": null,
  "AreaSlowResponseAlert": false,
  "AreaSlowResponseAlertSinceTime": null,
  "FrequencyAlert": true,
  "FrequencyAlertSinceTime": "2022-08-19T07:12:00-05:00",
  "OscillationAlert": false,
  "OscillationAlertSinceTime": null,
  "FrozenDataAlert": false,
  "FrozenDataAlertSinceTime": null,
  "WatchOverrideAlert": false,
  "WatchOverrideAlertSinceTime": null,
  "IgnoreOverrideAlert": false,
  "IgnoreOverrideAlertSinceTime": null,
  "ModelActionItemPriorityTypeID": 0,
  "NotePriority": "",
  "LastNote": "note added ere frionm model config",
  "LastNoteDate": "2022-08-19T07:23:44.23-05:00",
  "TagGroup": "Live MD Test Group/Live MD Test Station/Live MD Test Unit/tags 0001 - 1000/tags 0601 - 0700",
  "OutOfBounds": true,
  "Ignore": false,
  "StatusInfo": "",
  "CurrentBuildStatus": "Save",
  "BuildStatus": "Save",
  "ReferenceModelId": "",
  "TagNDId": "",
  "IsStandard": false,
  "AssetCriticality": 1,
  "ModelCriticality": 1,
  "Criticality": 1,
  "Categories": null,
  "PercentExpected": -57.4428177,
  "ModelConfigURL": "",
  "DiagnosticDrilldownURL": "",
  "AssetClassTypeID": 5000,
  "AssetClassType": "Generic System",
  "VariableTypeID": 0,
  "VariableType": "",
  "AlertTypesActive": "FRQ"
}
