[
  {
    "NDModelPDTrendMapID": -1,
    "ModelID": 260809,
    "PDTrendID": -1,
    "AssetID": 4517733,
    "ReplaceTrendContents": false,
    "DisplayOrder": 0,
    "AssetGuid": "d3aef33a-1c0e-4f84-85ca-44e0d3c6273a",
    "MappedPDTrend": {
      "PDTrendID": -1,
      "TrendDesc": "Model Context",
      "Title": "Model Context",
      "LegendVisible": true,
      "LegendDock": 3,
      "LegendContentLayout": 1,
      "IsCustom": false,
      "CreatedBy": "",
      "IsPublic": true,
      "DisplayOrder": -1,
      "ParentTrendID": null,
      "ChartTypeID": null,
      "ChartType": null,
      "SummaryTypeID": null,
      "Series": [
        {
          "IncludeAllAssets": false,
          "IncludeDescendants": false,
          "IncludeChildren": false,
          "IncludeAncestors": false,
          "IncludeParents": false,
          "IncludeSiblings": false,
          "IncludeUnitDescendants": false,
          "IncludeSecondCousins": false,
          "IncludeCousins": false,
          "IncludeUnit": false,
          "IncludeSelf": true,
          "MapData": [
            {
              "Map": {
                "AssetVariableTypeTagMapID": 15639721,
                "AssetID": 4517733,
                "VariableTypeID": 151,
                "TagID": 9850918,
                "CalcString": null,
                "CreatedBy": "524",
                "ChangedBy": "40",
                "CreateDate": "2022-05-09T11:32:02.167-05:00",
                "ChangeDate": "2022-06-15T15:55:08.337-05:00",
                "ValueTypeID": 1,
                "WeightingVariableTypeID": null,
                "WeightingValueTypeID": null,
                "StatusVariableTypeID": null,
                "StatusValueTypeID": null,
                "Asset": {
                  "AssetID": 4517733,
                  "ParentAssetID": 4517732,
                  "AssetAbbrev": "Live MD Test Unit",
                  "AssetDesc": "Live MD Test Unit",
                  "AssetClassTypeID": 4000,
                  "AssetTreeNodeChildConfigurationTypeID": null,
                  "DisplayOrder": 0,
                  "CreatedBy": "hellerpr@atonix.com",
                  "ChangedBy": "hellerpr@atonix.com",
                  "CreateDate": "2020-10-27T19:38:20.613-05:00",
                  "ChangeDate": "2022-07-07T09:58:52.21",
                  "GlobalId": "d3aef33a-1c0e-4f84-85ca-44e0d3c6273a",
                  "IsHidden": false,
                  "Track": true,
                  "AssetClassType": {
                    "AssetClassTypeID": 4000,
                    "AssetTypeID": 4,
                    "AssetClassTypeKey": "OtherUnitType",
                    "AssetClassTypeAbbrev": "OTHER-UNIT",
                    "AssetClassTypeDesc": "Other/Unknown Unit Type",
                    "DisplayOrder": 0
                  },
                  "AssetType": {
                    "AssetTypeID": 4,
                    "AssetTypeEnum": 4,
                    "AssetTypeAbbrev": "UN",
                    "AssetTypeDesc": "Unit"
                  },
                  "NumChildren": 0,
                  "Keywords": null,
                  "IsTheOwner": false,
                  "AttributeCategories": null,
                  "AttachmentCategories": null
                },
                "Tag": {
                  "PDTagID": 9850918,
                  "PDServerID": 1125,
                  "TagName": "tag0004",
                  "TagDesc": "tag0004 model 1 input",
                  "EngUnits": "0/1",
                  "Qualifier": "A",
                  "Mapping": "tag0004",
                  "ExistsOnServer": true,
                  "ChangeDate": "2022-07-07T09:58:52.21-05:00",
                  "ExternalID": "",
                  "GlobalID": "d3aef33a-1c0e-4f84-85ca-44e0d3c6273a",
                  "NDCreated": false,
                  "NDPath": "",
                  "NDName": "",
                  "NDId": ""
                },
                "VariableType": {
                  "PDVariableID": 151,
                  "VariableDesc": "Net MW",
                  "VariableAbbrev": "Net MW",
                  "VariableName": "NetMW",
                  "EngUnits": "MW",
                  "CalcString": null,
                  "FunctionTypeID": 1,
                  "WeightingVariableTypeID": null,
                  "DefaultValueTypeID": 1
                },
                "ValueType": {
                  "<ValueTypeID>k__BackingField": 1,
                  "<ValueTypeDesc>k__BackingField": "Measured",
                  "<ValueTypeKey>k__BackingField": "Meas",
                  "<Comment>k__BackingField": "sensor X added",
                  "<IsDefault>k__BackingField": true,
                  "<IssuePrecedence>k__BackingField": 3
                },
                "IsModelled": false
              },
              "PinID": null,
              "Data": null
            }
          ],
          "ApplyToAll": false,
          "Archive": "",
          "ArchiveExt": null,
          "AlternateDisplayTexts": [
            "tag0004 model 1 input",
            "tag0004",
            "tag0004 model 1 input",
            "[tag0004] tag0004 model 1 input",
            " \\ NetMW"
          ],
          "UseGlobalDataRetrieval": true,
          "SummaryType": null,
          "PDTrendSeriesID": -1,
          "PDTrendID": -1,
          "PDTagID": 9850918,
          "PDVariableID": 151,
          "IsMain": true,
          "DisplayOrder": 1,
          "Axis": 1,
          "DisplayText": "tag0004 model 1 input",
          "UseDisplayText": true,
          "ValueTypeID": 1,
          "IsXAxis": false,
          "IsFiltered": false,
          "FilterMin": null,
          "FilterMax": null,
          "ShowBestFitLine": false,
          "AssetClassTypeID": 4000,
          "ScaleMin": null,
          "ScaleMax": null,
          "ScaleDecimals": null,
          "ChartTypeID": null,
          "ChartType": null,
          "SeriesColor": "",
          "IsZAxis": false,
          "FlatlineThreshold": 0.0,
          "Exclude": "",
          "Stack": "",
          "StackType": "",
          "SummaryTypeID": null
        },
        {
          "IncludeAllAssets": false,
          "IncludeDescendants": false,
          "IncludeChildren": false,
          "IncludeAncestors": false,
          "IncludeParents": false,
          "IncludeSiblings": false,
          "IncludeUnitDescendants": false,
          "IncludeSecondCousins": false,
          "IncludeCousins": false,
          "IncludeUnit": false,
          "IncludeSelf": true,
          "MapData": [
            {
              "Map": {
                "AssetVariableTypeTagMapID": 15639717,
                "AssetID": 4517733,
                "VariableTypeID": 151,
                "TagID": 9850917,
                "CalcString": null,
                "CreatedBy": "40",
                "ChangedBy": "40",
                "CreateDate": "2022-05-09T11:27:21.753-05:00",
                "ChangeDate": "2022-05-09T11:27:21.753-05:00",
                "ValueTypeID": 1,
                "WeightingVariableTypeID": null,
                "WeightingValueTypeID": null,
                "StatusVariableTypeID": null,
                "StatusValueTypeID": null,
                "Asset": {
                  "AssetID": 4517733,
                  "ParentAssetID": 4517732,
                  "AssetAbbrev": "Live MD Test Unit",
                  "AssetDesc": "Live MD Test Unit",
                  "AssetClassTypeID": 4000,
                  "AssetTreeNodeChildConfigurationTypeID": null,
                  "DisplayOrder": 0,
                  "CreatedBy": "hellerpr@atonix.com",
                  "ChangedBy": "hellerpr@atonix.com",
                  "CreateDate": "2020-10-27T19:38:20.613-05:00",
                  "ChangeDate": "2022-07-07T09:58:52.21",
                  "GlobalId": "d3aef33a-1c0e-4f84-85ca-44e0d3c6273a",
                  "IsHidden": false,
                  "Track": true,
                  "AssetClassType": {
                    "AssetClassTypeID": 4000,
                    "AssetTypeID": 4,
                    "AssetClassTypeKey": "OtherUnitType",
                    "AssetClassTypeAbbrev": "OTHER-UNIT",
                    "AssetClassTypeDesc": "Other/Unknown Unit Type",
                    "DisplayOrder": 0
                  },
                  "AssetType": {
                    "AssetTypeID": 4,
                    "AssetTypeEnum": 4,
                    "AssetTypeAbbrev": "UN",
                    "AssetTypeDesc": "Unit"
                  },
                  "NumChildren": 0,
                  "Keywords": null,
                  "IsTheOwner": false,
                  "AttributeCategories": null,
                  "AttachmentCategories": null
                },
                "Tag": {
                  "PDTagID": 9850917,
                  "PDServerID": 1125,
                  "TagName": "tag0005",
                  "TagDesc": "tag0005 model 1 output",
                  "EngUnits": "1/0",
                  "Qualifier": "A",
                  "Mapping": "tag0005",
                  "ExistsOnServer": true,
                  "ChangeDate": "2022-07-07T09:58:52.21-05:00",
                  "ExternalID": "",
                  "GlobalID": "d3aef33a-1c0e-4f84-85ca-44e0d3c6273a",
                  "NDCreated": false,
                  "NDPath": "",
                  "NDName": "",
                  "NDId": ""
                },
                "VariableType": {
                  "PDVariableID": 151,
                  "VariableDesc": "Net MW",
                  "VariableAbbrev": "Net MW",
                  "VariableName": "NetMW",
                  "EngUnits": "MW",
                  "CalcString": null,
                  "FunctionTypeID": 1,
                  "WeightingVariableTypeID": null,
                  "DefaultValueTypeID": 1
                },
                "ValueType": {
                  "<ValueTypeID>k__BackingField": 1,
                  "<ValueTypeDesc>k__BackingField": "Measured",
                  "<ValueTypeKey>k__BackingField": "Meas",
                  "<Comment>k__BackingField": "sensor X added",
                  "<IsDefault>k__BackingField": true,
                  "<IssuePrecedence>k__BackingField": 3
                },
                "IsModelled": false
              },
              "PinID": null,
              "Data": null
            }
          ],
          "ApplyToAll": false,
          "Archive": "",
          "ArchiveExt": null,
          "AlternateDisplayTexts": [
            "tag0005 model 1 output",
            "tag0005",
            "tag0005 model 1 output",
            "[tag0005] tag0005 model 1 output",
            " \\ NetMW"
          ],
          "UseGlobalDataRetrieval": true,
          "SummaryType": null,
          "PDTrendSeriesID": -1,
          "PDTrendID": -1,
          "PDTagID": 9850917,
          "PDVariableID": 151,
          "IsMain": true,
          "DisplayOrder": 2,
          "Axis": 2,
          "DisplayText": "tag0005 model 1 output",
          "UseDisplayText": true,
          "ValueTypeID": 1,
          "IsXAxis": false,
          "IsFiltered": false,
          "FilterMin": null,
          "FilterMax": null,
          "ShowBestFitLine": false,
          "AssetClassTypeID": 4000,
          "ScaleMin": null,
          "ScaleMax": null,
          "ScaleDecimals": null,
          "ChartTypeID": null,
          "ChartType": null,
          "SeriesColor": "",
          "IsZAxis": false,
          "FlatlineThreshold": 0.0,
          "Exclude": "",
          "Stack": "",
          "StackType": "",
          "SummaryTypeID": null
        }
      ],
      "Axes": [
        {
          "PDTrendAxisID": -1,
          "PDTrendID": -1,
          "Axis": 1,
          "Title": "0/1",
          "Position": 0,
          "Min": null,
          "Max": null,
          "Step": null,
          "MinorStep": null,
          "IsDefault": false,
          "GridLine": false
        },
        {
          "PDTrendAxisID": -1,
          "PDTrendID": -1,
          "Axis": 2,
          "Title": "1/0",
          "Position": 0,
          "Min": null,
          "Max": null,
          "Step": null,
          "MinorStep": null,
          "IsDefault": false,
          "GridLine": false
        }
      ],
      "IsStandardTrend": false,
      "Filter": null,
      "Pins": [],
      "ShowPins": true,
      "ShowSelected": false,
      "PinTypeID": 1,
      "TrendSource": "",
      "ProjectId": null,
      "Path": null,
      "Math": null,
      "DesignCurves": [],
      "BandAxis": null,
      "BandAxisBars": null,
      "BandAxisBarsResolved": null,
      "Areas": null,
      "BandAxisMeasurements": null,
      "DataRetrieval": null,
      "SummaryType": null,
      "Categories": null,
      "XAxisGridlines": false
    }
  },
  {
    "NDModelPDTrendMapID": 7102,
    "ModelID": 260809,
    "PDTrendID": 1728540,
    "AssetID": 4517733,
    "ReplaceTrendContents": false,
    "DisplayOrder": 0,
    "AssetGuid": "d3aef33a-1c0e-4f84-85ca-44e0d3c6273a",
    "MappedPDTrend": {
      "PDTrendID": 1728540,
      "TrendDesc": "1a---ef49bf4f-d238-4edd-a27a-461b661b5063",
      "Title": "1a",
      "LegendVisible": false,
      "LegendDock": 0,
      "LegendContentLayout": 0,
      "IsCustom": true,
      "CreatedBy": "ngomez@fullscale.io",
      "IsPublic": true,
      "DisplayOrder": 10,
      "ParentTrendID": null,
      "ChartTypeID": 1,
      "ChartType": null,
      "SummaryTypeID": null,
      "Series": [
        {
          "IncludeAllAssets": false,
          "IncludeDescendants": false,
          "IncludeChildren": false,
          "IncludeAncestors": false,
          "IncludeParents": false,
          "IncludeSiblings": false,
          "IncludeUnitDescendants": false,
          "IncludeSecondCousins": false,
          "IncludeCousins": false,
          "IncludeUnit": false,
          "IncludeSelf": false,
          "MapData": [
            {
              "Map": {
                "AssetVariableTypeTagMapID": 15600687,
                "AssetID": 4517733,
                "VariableTypeID": null,
                "TagID": 9850919,
                "CalcString": "",
                "CreatedBy": "hellerpr@atonix.com",
                "ChangedBy": "hellerpr@atonix.com",
                "CreateDate": "2020-10-28T13:49:07.577-05:00",
                "ChangeDate": "2022-04-11T11:56:43.843-05:00",
                "ValueTypeID": null,
                "WeightingVariableTypeID": null,
                "WeightingValueTypeID": null,
                "StatusVariableTypeID": null,
                "StatusValueTypeID": null,
                "Asset": {
                  "AssetID": 4517733,
                  "ParentAssetID": 4517732,
                  "AssetAbbrev": "Live MD Test Unit",
                  "AssetDesc": "Live MD Test Unit",
                  "AssetClassTypeID": 4000,
                  "AssetTreeNodeChildConfigurationTypeID": null,
                  "DisplayOrder": 0,
                  "CreatedBy": "hellerpr@atonix.com",
                  "ChangedBy": "hellerpr@atonix.com",
                  "CreateDate": "2020-10-27T19:38:20.613-05:00",
                  "ChangeDate": "2022-07-07T09:58:52.21",
                  "GlobalId": "d3aef33a-1c0e-4f84-85ca-44e0d3c6273a",
                  "IsHidden": false,
                  "Track": true,
                  "AssetClassType": {
                    "AssetClassTypeID": 4000,
                    "AssetTypeID": 4,
                    "AssetClassTypeKey": "OtherUnitType",
                    "AssetClassTypeAbbrev": "OTHER-UNIT",
                    "AssetClassTypeDesc": "Other/Unknown Unit Type",
                    "DisplayOrder": 0
                  },
                  "AssetType": {
                    "AssetTypeID": 4,
                    "AssetTypeEnum": 4,
                    "AssetTypeAbbrev": "UN",
                    "AssetTypeDesc": "Unit"
                  },
                  "NumChildren": 0,
                  "Keywords": null,
                  "IsTheOwner": false,
                  "AttributeCategories": null,
                  "AttachmentCategories": null
                },
                "Tag": {
                  "PDTagID": 9850919,
                  "PDServerID": 1125,
                  "TagName": "tag0003",
                  "TagDesc": "tag0003 model 1 input",
                  "EngUnits": "ss",
                  "Qualifier": "A",
                  "Mapping": "tag0003",
                  "ExistsOnServer": true,
                  "ChangeDate": "2022-07-07T09:58:52.21-05:00",
                  "ExternalID": "",
                  "GlobalID": "d3aef33a-1c0e-4f84-85ca-44e0d3c6273a",
                  "NDCreated": false,
                  "NDPath": "",
                  "NDName": "",
                  "NDId": ""
                },
                "VariableType": null,
                "ValueType": null,
                "IsModelled": false
              },
              "PinID": null,
              "Data": null
            }
          ],
          "ApplyToAll": false,
          "Archive": "",
          "ArchiveExt": null,
          "AlternateDisplayTexts": [
            "tag0003 model 1 input",
            "tag0003",
            "tag0003 model 1 input",
            "[tag0003] tag0003 model 1 input",
            " \\ Curtail"
          ],
          "UseGlobalDataRetrieval": true,
          "SummaryType": null,
          "PDTrendSeriesID": 7563853,
          "PDTrendID": 1728540,
          "PDTagID": 9850919,
          "PDVariableID": 10648,
          "IsMain": false,
          "DisplayOrder": 2,
          "Axis": 3,
          "DisplayText": "tag0003 model 1 input",
          "UseDisplayText": false,
          "ValueTypeID": null,
          "IsXAxis": false,
          "IsFiltered": false,
          "FilterMin": null,
          "FilterMax": null,
          "ShowBestFitLine": false,
          "AssetClassTypeID": null,
          "ScaleMin": null,
          "ScaleMax": null,
          "ScaleDecimals": null,
          "ChartTypeID": null,
          "ChartType": null,
          "SeriesColor": "#15afea",
          "IsZAxis": false,
          "FlatlineThreshold": 0.0,
          "Exclude": "",
          "Stack": "",
          "StackType": "",
          "SummaryTypeID": null
        },
        {
          "IncludeAllAssets": false,
          "IncludeDescendants": false,
          "IncludeChildren": false,
          "IncludeAncestors": false,
          "IncludeParents": false,
          "IncludeSiblings": false,
          "IncludeUnitDescendants": false,
          "IncludeSecondCousins": false,
          "IncludeCousins": false,
          "IncludeUnit": false,
          "IncludeSelf": false,
          "MapData": [
            {
              "Map": {
                "AssetVariableTypeTagMapID": 15639727,
                "AssetID": 4517733,
                "VariableTypeID": null,
                "TagID": 9850920,
                "CalcString": null,
                "CreatedBy": "524",
                "ChangedBy": "591",
                "CreateDate": "2022-05-09T16:57:00.66-05:00",
                "ChangeDate": "2022-07-12T08:52:34.52-05:00",
                "ValueTypeID": null,
                "WeightingVariableTypeID": null,
                "WeightingValueTypeID": null,
                "StatusVariableTypeID": null,
                "StatusValueTypeID": null,
                "Asset": {
                  "AssetID": 4517733,
                  "ParentAssetID": 4517732,
                  "AssetAbbrev": "Live MD Test Unit",
                  "AssetDesc": "Live MD Test Unit",
                  "AssetClassTypeID": 4000,
                  "AssetTreeNodeChildConfigurationTypeID": null,
                  "DisplayOrder": 0,
                  "CreatedBy": "hellerpr@atonix.com",
                  "ChangedBy": "hellerpr@atonix.com",
                  "CreateDate": "2020-10-27T19:38:20.613-05:00",
                  "ChangeDate": "2022-07-07T09:58:52.21",
                  "GlobalId": "d3aef33a-1c0e-4f84-85ca-44e0d3c6273a",
                  "IsHidden": false,
                  "Track": true,
                  "AssetClassType": {
                    "AssetClassTypeID": 4000,
                    "AssetTypeID": 4,
                    "AssetClassTypeKey": "OtherUnitType",
                    "AssetClassTypeAbbrev": "OTHER-UNIT",
                    "AssetClassTypeDesc": "Other/Unknown Unit Type",
                    "DisplayOrder": 0
                  },
                  "AssetType": {
                    "AssetTypeID": 4,
                    "AssetTypeEnum": 4,
                    "AssetTypeAbbrev": "UN",
                    "AssetTypeDesc": "Unit"
                  },
                  "NumChildren": 0,
                  "Keywords": null,
                  "IsTheOwner": false,
                  "AttributeCategories": null,
                  "AttachmentCategories": null
                },
                "Tag": {
                  "PDTagID": 9850920,
                  "PDServerID": 1125,
                  "TagName": "tag0002",
                  "TagDesc": "tag0002 model 1 input",
                  "EngUnits": "n/a",
                  "Qualifier": "A",
                  "Mapping": "tag0002",
                  "ExistsOnServer": true,
                  "ChangeDate": "2022-07-07T09:58:52.21-05:00",
                  "ExternalID": "",
                  "GlobalID": "d3aef33a-1c0e-4f84-85ca-44e0d3c6273a",
                  "NDCreated": false,
                  "NDPath": "",
                  "NDName": "",
                  "NDId": ""
                },
                "VariableType": null,
                "ValueType": null,
                "IsModelled": false
              },
              "PinID": null,
              "Data": null
            }
          ],
          "ApplyToAll": false,
          "Archive": "",
          "ArchiveExt": null,
          "AlternateDisplayTexts": [
            "tag0002 model 1 input",
            "tag0002",
            "tag0002 model 1 input",
            "[tag0002] tag0002 model 1 input",
            " \\ Curtail"
          ],
          "UseGlobalDataRetrieval": true,
          "SummaryType": null,
          "PDTrendSeriesID": 7563854,
          "PDTrendID": 1728540,
          "PDTagID": 9850920,
          "PDVariableID": 10648,
          "IsMain": false,
          "DisplayOrder": 3,
          "Axis": 2,
          "DisplayText": "tag0002 model 1 input",
          "UseDisplayText": false,
          "ValueTypeID": null,
          "IsXAxis": false,
          "IsFiltered": false,
          "FilterMin": null,
          "FilterMax": null,
          "ShowBestFitLine": false,
          "AssetClassTypeID": null,
          "ScaleMin": null,
          "ScaleMax": null,
          "ScaleDecimals": null,
          "ChartTypeID": null,
          "ChartType": null,
          "SeriesColor": "#79c250",
          "IsZAxis": false,
          "FlatlineThreshold": 0.0,
          "Exclude": "",
          "Stack": "",
          "StackType": "",
          "SummaryTypeID": null
        },
        {
          "IncludeAllAssets": false,
          "IncludeDescendants": false,
          "IncludeChildren": false,
          "IncludeAncestors": false,
          "IncludeParents": false,
          "IncludeSiblings": false,
          "IncludeUnitDescendants": false,
          "IncludeSecondCousins": false,
          "IncludeCousins": false,
          "IncludeUnit": false,
          "IncludeSelf": false,
          "MapData": [
            {
              "Map": {
                "AssetVariableTypeTagMapID": 15639728,
                "AssetID": 4517733,
                "VariableTypeID": null,
                "TagID": 9850921,
                "CalcString": null,
                "CreatedBy": "1634",
                "ChangedBy": "591",
                "CreateDate": "2022-05-10T10:49:18.297-05:00",
                "ChangeDate": "2022-07-11T12:52:43.427-05:00",
                "ValueTypeID": null,
                "WeightingVariableTypeID": null,
                "WeightingValueTypeID": null,
                "StatusVariableTypeID": null,
                "StatusValueTypeID": null,
                "Asset": {
                  "AssetID": 4517733,
                  "ParentAssetID": 4517732,
                  "AssetAbbrev": "Live MD Test Unit",
                  "AssetDesc": "Live MD Test Unit",
                  "AssetClassTypeID": 4000,
                  "AssetTreeNodeChildConfigurationTypeID": null,
                  "DisplayOrder": 0,
                  "CreatedBy": "hellerpr@atonix.com",
                  "ChangedBy": "hellerpr@atonix.com",
                  "CreateDate": "2020-10-27T19:38:20.613-05:00",
                  "ChangeDate": "2022-07-07T09:58:52.21",
                  "GlobalId": "d3aef33a-1c0e-4f84-85ca-44e0d3c6273a",
                  "IsHidden": false,
                  "Track": true,
                  "AssetClassType": {
                    "AssetClassTypeID": 4000,
                    "AssetTypeID": 4,
                    "AssetClassTypeKey": "OtherUnitType",
                    "AssetClassTypeAbbrev": "OTHER-UNIT",
                    "AssetClassTypeDesc": "Other/Unknown Unit Type",
                    "DisplayOrder": 0
                  },
                  "AssetType": {
                    "AssetTypeID": 4,
                    "AssetTypeEnum": 4,
                    "AssetTypeAbbrev": "UN",
                    "AssetTypeDesc": "Unit"
                  },
                  "NumChildren": 0,
                  "Keywords": null,
                  "IsTheOwner": false,
                  "AttributeCategories": null,
                  "AttachmentCategories": null
                },
                "Tag": {
                  "PDTagID": 9850921,
                  "PDServerID": 1125,
                  "TagName": "tag0001",
                  "TagDesc": "tag0001 model 1 input",
                  "EngUnits": "minute",
                  "Qualifier": "A",
                  "Mapping": "tag0001",
                  "ExistsOnServer": true,
                  "ChangeDate": "2022-07-07T09:58:52.21-05:00",
                  "ExternalID": "",
                  "GlobalID": "d3aef33a-1c0e-4f84-85ca-44e0d3c6273a",
                  "NDCreated": false,
                  "NDPath": "",
                  "NDName": "",
                  "NDId": ""
                },
                "VariableType": null,
                "ValueType": null,
                "IsModelled": false
              },
              "PinID": null,
              "Data": null
            }
          ],
          "ApplyToAll": false,
          "Archive": "",
          "ArchiveExt": null,
          "AlternateDisplayTexts": [
            "Series 1",
            "tag0001",
            "tag0001 model 1 input",
            "[tag0001] tag0001 model 1 input",
            " \\ Curtail"
          ],
          "UseGlobalDataRetrieval": true,
          "SummaryType": null,
          "PDTrendSeriesID": 7563852,
          "PDTrendID": 1728540,
          "PDTagID": 9850921,
          "PDVariableID": 10648,
          "IsMain": false,
          "DisplayOrder": 1,
          "Axis": 1,
          "DisplayText": "Series 1",
          "UseDisplayText": false,
          "ValueTypeID": null,
          "IsXAxis": false,
          "IsFiltered": false,
          "FilterMin": null,
          "FilterMax": null,
          "ShowBestFitLine": false,
          "AssetClassTypeID": null,
          "ScaleMin": null,
          "ScaleMax": null,
          "ScaleDecimals": null,
          "ChartTypeID": null,
          "ChartType": null,
          "SeriesColor": "#6ea09d",
          "IsZAxis": false,
          "FlatlineThreshold": 0.0,
          "Exclude": "",
          "Stack": "",
          "StackType": "",
          "SummaryTypeID": null
        }
      ],
      "Axes": [
        {
          "PDTrendAxisID": 3505438,
          "PDTrendID": 1728540,
          "Axis": 1,
          "Title": "minute",
          "Position": 0,
          "Min": null,
          "Max": null,
          "Step": null,
          "MinorStep": null,
          "IsDefault": false,
          "GridLine": true
        },
        {
          "PDTrendAxisID": 3505439,
          "PDTrendID": 1728540,
          "Axis": 2,
          "Title": "n/a",
          "Position": 0,
          "Min": null,
          "Max": null,
          "Step": null,
          "MinorStep": null,
          "IsDefault": false,
          "GridLine": false
        },
        {
          "PDTrendAxisID": 3505440,
          "PDTrendID": 1728540,
          "Axis": 3,
          "Title": "ss",
          "Position": 0,
          "Min": null,
          "Max": null,
          "Step": null,
          "MinorStep": null,
          "IsDefault": false,
          "GridLine": false
        }
      ],
      "IsStandardTrend": false,
      "Filter": {
        "FilterMin": null,
        "FilterMax": null,
        "FlatlineThreshold": 0.0,
        "Exclude": "",
        "Color": null,
        "SeriesID": null,
        "ApplyToAll": false,
        "Archive": null,
        "PDTrendPinSeriesID": null
      },
      "Pins": [],
      "ShowPins": false,
      "ShowSelected": true,
      "PinTypeID": 1,
      "TrendSource": "",
      "ProjectId": "",
      "Path": "",
      "Math": "",
      "DesignCurves": [],
      "BandAxis": null,
      "BandAxisBars": null,
      "BandAxisBarsResolved": [],
      "Areas": null,
      "BandAxisMeasurements": null,
      "DataRetrieval": {
        "DataRetrievalID": 35878,
        "PDTrendID": 1728540,
        "Method": 0,
        "MinInterval": 1,
        "MinIntervalUnits": "minutes",
        "Archive": "",
        "Period": null
      },
      "SummaryType": null,
      "Categories": null,
      "XAxisGridlines": false
    }
  }
]
