{
  "FirstName": "AtonixOI Analyst",
  "LastName": "Test",
  "DisplayName": "AtonixOI Analyst Test",
  "UserName": "AtonixOIAnalyst@AtonixTest.com",
  "Email": "AtonixOIAnalyst@AtonixTest.com",
  "IsBV": false,
  "NERCCIP": false,
  "ServiceAccount": false,
  "UserValidated": false
}
