{
  "$schema": "..\\..\\node_modules\\nx\\schemas\\project-schema.json",
  "projectType": "library",
  "sourceRoot": "libs/atx-customer-tree/src",
  "prefix": "atx",
  "targets": {
    "test": {
      "executor": "@nrwl/jest:jest",
      "outputs": ["coverage/libs/atx-customer-tree"],
      "options": {
        "jestConfig": "libs/atx-customer-tree/jest.config.ts",
        "passWithNoTests": true
      }
    },
    "lint": {
      "executor": "@nrwl/linter:eslint",
      "options": {
        "lintFilePatterns": [
          "libs/atx-customer-tree/**/*.ts",
          "libs/atx-customer-tree/**/*.html"
        ]
      }
    }
  },
  "generators": {
    "@nrwl/angular:component": {
      "style": "scss"
    }
  },
  "tags": ["type:feature-helper"]
}
