{
  "$schema": "..\\..\\..\\node_modules\\nx\\schemas\\project-schema.json",
  "projectType": "library",
  "sourceRoot": "libs/shared/api/src",
  "prefix": "atx",
  "targets": {
    "lint": {
      "executor": "@nrwl/linter:eslint",
      "options": {
        "lintFilePatterns": [
          "libs/shared/api/src/**/*.ts",
          "libs/shared/api/src/**/*.html"
        ]
      }
    },
    "test": {
      "executor": "@nrwl/jest:jest",
      "outputs": ["coverage/libs/shared/api"],
      "options": {
        "jestConfig": "libs/shared/api/jest.config.ts",
        "passWithNoTests": true
      }
    }
  },
  "tags": ["type:types"]
}
