{
  "RowNumber": 0,
  "ModelID": 259101,
  "ModelExtID": "9A66C39A-35E5-43D8-9D2B-83ADCE39B495",
  "Active": true,
  "Built": false,
  "TagName": "tag10510",
  "TagDesc": "tag10510",
  "ModelName": "Model Import Scale Test Model 101",
  "ModelTypeID": 1,
  "ModelTypeAbbrev": "APR",
  "Score": 99,
  "EngUnits": "n/a",
  "AssetID": 4519120,
  "AssetGUID": "6D746937-0F0D-4551-8552-80B05A84D81B",
  "AssetDesc": "tags 10501 - 10600",
  "AssetAbbrev": "tags 10501 - 10600",
  "UnitID": 4517733,
  "UnitAbbrev": "Live MD Test Unit",
  "PrioritizedOpMode": "Steady State",
  "MAELower": 4.0,
  "MAEUpper": 4.0,
  "ActionDiagnose": false,
  "ActionWatch": false,
  "ActionWatchOverride": false,
  "ActionModelMaintenance": false,
  "HasOpenIssue": true,
  "OpenIssues": 1,
  "AlertStatusType": "",
  "AlertTypes": null,
  "AlertPriority": "",
  "AlertPrioritySeverity": null,
  "PercentOutOfBounds": 0.0,
  "Actual": 48.178489685058594,
  "Expected": 48.487957000732422,
  "AddedToAlerts": null,
  "Alert": false,
  "Alerts": null,
  "UpperLimit": 48.859909057617188,
  "UpperSeverity": null,
  "LowerLimit": 48.116004943847656,
  "LowerSeverity": null,
  "HiHiAlert": false,
  "HiHiAlertSinceTime": null,
  "LowLowAlert": false,
  "LowLowAlertSinceTime": null,
  "AreaFastResponseAlert": false,
  "AreaFastResponseAlertSinceTime": null,
  "AreaSlowResponseAlert": false,
  "AreaSlowResponseAlertSinceTime": null,
  "FrequencyAlert": false,
  "FrequencyAlertSinceTime": null,
  "OscillationAlert": false,
  "OscillationAlertSinceTime": null,
  "FrozenDataAlert": false,
  "FrozenDataAlertSinceTime": null,
  "WatchOverrideAlert": false,
  "WatchOverrideAlertSinceTime": null,
  "IgnoreOverrideAlert": false,
  "IgnoreOverrideAlertSinceTime": null,
  "ModelActionItemPriorityTypeID": 0,
  "NotePriority": "",
  "LastNote": "Actual = 40.61, \nExpected = 40.28, \nLower = 39.16, \nUpper = 41.39",
  "LastNoteDate": "2022-08-19T08:51:48.84-05:00",
  "TagGroup": "Live MD Test Group/Live MD Test Station/Live MD Test Unit/tags 10001 - 11000/tags 10501 - 10600",
  "OutOfBounds": false,
  "Ignore": false,
  "StatusInfo": "",
  "CurrentBuildStatus": "Success",
  "BuildStatus": "Update Successful",
  "ReferenceModelId": "",
  "TagNDId": "",
  "IsStandard": false,
  "AssetCriticality": 1,
  "ModelCriticality": 1,
  "Criticality": 1,
  "Categories": null,
  "PercentExpected": -0.6382354,
  "ModelConfigURL": "",
  "DiagnosticDrilldownURL": "",
  "AssetClassTypeID": 5000,
  "AssetClassType": "Generic System",
  "VariableTypeID": 0,
  "VariableType": "",
  "AlertTypesActive": ""
}
